{"failedCount":1,"prefixedPath":"src\/test\/java\/feature\/getApi.feature","packageQualifiedName":"src.test.java.feature.getApi","loopIndex":-1,"relativePath":"src\/test\/java\/feature\/getApi.feature","scenarioResults":[{"sectionIndex":0,"stepResults":[{"result":{"nanos":280483400,"millis":280.4834,"status":"passed"},"step":{"line":5,"prefix":"Given","index":0,"text":"url 'https:\/\/reqres.in\/api\/users\/'"}},{"result":{"nanos":1191800,"millis":1.1918,"status":"passed"},"step":{"line":6,"prefix":"And","index":1,"text":"header Content-Type = 'application\/json'"}},{"result":{"nanos":463497000,"millis":463.497,"status":"passed"},"step":{"line":7,"prefix":"And","index":2,"text":"configure ssl = true"}},{"result":{"nanos":102097300,"millis":102.0973,"status":"passed"},"step":{"endLine":16,"line":8,"prefix":"And","docString":"{  \n          \"name\": \"harshada\",\n          \"job\": \"testernew\"\n    }","index":3,"text":"request"}},{"result":{"nanos":1304473200,"millis":1304.4732,"status":"passed"},"step":{"line":17,"prefix":"When","index":4,"text":"method POST"},"stepLog":"16:06:20.416 request:\n1 > POST https:\/\/reqres.in\/api\/users\/\n1 > Content-Type: application\/json; charset=UTF-8\n1 > Content-Length: 37\n1 > Host: reqres.in\n1 > Connection: Keep-Alive\n1 > User-Agent: Apache-HttpClient\/4.5.12 (Java\/17.0.6)\n1 > Accept-Encoding: gzip,deflate\n{\"name\":\"harshada\",\"job\":\"testernew\"}\n\n16:06:21.312 response time in milliseconds: 884\n1 < 201\n1 < Date: Thu, 04 Apr 2024 10:36:20 GMT\n1 < Content-Type: application\/json; charset=utf-8\n1 < Content-Length: 87\n1 < Connection: keep-alive\n1 < Report-To: {\"group\":\"heroku-nel\",\"max_age\":3600,\"endpoints\":[{\"url\":\"https:\/\/nel.heroku.com\/reports?ts=1712226980&sid=c4c9725f-1ab0-44d8-820f-430df2718e11&s=QVFlpyS4JCANlE22okpfIvYtLXAJZhrOoPpyrpxq1CE%3D\"}]}\n1 < Reporting-Endpoints: heroku-nel=https:\/\/nel.heroku.com\/reports?ts=1712226980&sid=c4c9725f-1ab0-44d8-820f-430df2718e11&s=QVFlpyS4JCANlE22okpfIvYtLXAJZhrOoPpyrpxq1CE%3D\n1 < Nel: {\"report_to\":\"heroku-nel\",\"max_age\":3600,\"success_fraction\":0.005,\"failure_fraction\":0.05,\"response_headers\":[\"Via\"]}\n1 < X-Powered-By: Express\n1 < Access-Control-Allow-Origin: *\n1 < Etag: W\/\"57-4IfPnxVSIXFPmD5TfDDPazIataY\"\n1 < Via: 1.1 vegur\n1 < CF-Cache-Status: DYNAMIC\n1 < Server: cloudflare\n1 < CF-RAY: 86f0a823bdb6858f-BOM\n{\"name\":\"harshada\",\"job\":\"testernew\",\"id\":\"954\",\"createdAt\":\"2024-04-04T10:36:20.754Z\"}\n\n"},{"result":{"nanos":43000,"millis":0.043,"status":"passed"},"step":{"line":18,"prefix":"Then","index":5,"text":"status 201"}},{"result":{"nanos":94623300,"millis":94.6233,"status":"passed"},"step":{"line":19,"prefix":"And","index":6,"text":"match response == { id :'#notnull', name:'harshada',job:'testernew',createdAt:'#notnull'}"}},{"result":{"nanos":39240200,"millis":39.2402,"status":"passed"},"step":{"line":20,"prefix":"Given","index":7,"text":"path response.id"}},{"result":{"nanos":114606900,"millis":114.6069,"status":"passed"},"step":{"line":21,"prefix":"And","index":8,"text":"print response"},"stepLog":"16:06:21.570 [print] {\n  \"name\": \"harshada\",\n  \"job\": \"testernew\",\n  \"id\": \"954\",\n  \"createdAt\": \"2024-04-04T10:36:20.754Z\"\n}\n \n"}],"executorName":"main","line":4,"name":"create and retrieve a user name","description":"","durationMillis":2400.2561,"startTime":1712226979135,"failed":false,"refId":"[1:4]","endTime":1712226981573,"exampleIndex":-1},{"sectionIndex":1,"stepResults":[{"result":{"nanos":1250400,"millis":1.2504,"status":"passed"},"step":{"line":25,"prefix":"Given","index":0,"text":"url 'https:\/\/reqres.in\/api\/users\/'"}},{"result":{"nanos":1253600,"millis":1.2536,"status":"passed"},"step":{"line":26,"prefix":"And","index":1,"text":"header Content-Type = 'application\/json'"}},{"result":{"nanos":3348900,"millis":3.3489,"status":"passed"},"step":{"line":27,"prefix":"And","index":2,"text":"configure ssl = true"}},{"result":{"nanos":2171300,"millis":2.1713,"status":"passed"},"step":{"endLine":36,"line":28,"prefix":"And","docString":"{\n          \"name\": \"George\",\n          \"job\": \"Bluth\"\n    \n      }","index":3,"text":"request"}},{"result":{"nanos":154047600,"millis":154.0476,"status":"passed"},"step":{"line":37,"prefix":"When","index":4,"text":"method GET"},"stepLog":"16:06:21.604 request:\n1 > GET https:\/\/reqres.in\/api\/users\/\n1 > Content-Type: application\/json; charset=UTF-8\n1 > Content-Length: 31\n1 > Host: reqres.in\n1 > Connection: Keep-Alive\n1 > User-Agent: Apache-HttpClient\/4.5.12 (Java\/17.0.6)\n1 > Accept-Encoding: gzip,deflate\n{\"name\":\"George\",\"job\":\"Bluth\"}\n\n16:06:21.752 response time in milliseconds: 146\n1 < 200\n1 < Date: Thu, 04 Apr 2024 10:36:21 GMT\n1 < Content-Type: application\/json; charset=utf-8\n1 < Transfer-Encoding: chunked\n1 < Connection: keep-alive\n1 < Report-To: {\"group\":\"heroku-nel\",\"max_age\":3600,\"endpoints\":[{\"url\":\"https:\/\/nel.heroku.com\/reports?ts=1711968508&sid=c4c9725f-1ab0-44d8-820f-430df2718e11&s=VhqmzA1dO7coJM9qU546BXt19ZN3s6IsK9ZEu%2BzzjN8%3D\"}]}\n1 < Reporting-Endpoints: heroku-nel=https:\/\/nel.heroku.com\/reports?ts=1711968508&sid=c4c9725f-1ab0-44d8-820f-430df2718e11&s=VhqmzA1dO7coJM9qU546BXt19ZN3s6IsK9ZEu%2BzzjN8%3D\n1 < Nel: {\"report_to\":\"heroku-nel\",\"max_age\":3600,\"success_fraction\":0.005,\"failure_fraction\":0.05,\"response_headers\":[\"Via\"]}\n1 < X-Powered-By: Express\n1 < Access-Control-Allow-Origin: *\n1 < Etag: W\/\"3e4-2RLXvr5wTg9YQ6aH95CkYoFNuO8\"\n1 < Via: 1.1 vegur\n1 < Cache-Control: max-age=14400\n1 < CF-Cache-Status: HIT\n1 < Age: 482\n1 < Vary: Accept-Encoding\n1 < Server: cloudflare\n1 < CF-RAY: 86f0a8292e7280b6-BOM\n{\"page\":1,\"per_page\":6,\"total\":12,\"total_pages\":2,\"data\":[{\"id\":1,\"email\":\"george.bluth@reqres.in\",\"first_name\":\"George\",\"last_name\":\"Bluth\",\"avatar\":\"https:\/\/reqres.in\/img\/faces\/1-image.jpg\"},{\"id\":2,\"email\":\"janet.weaver@reqres.in\",\"first_name\":\"Janet\",\"last_name\":\"Weaver\",\"avatar\":\"https:\/\/reqres.in\/img\/faces\/2-image.jpg\"},{\"id\":3,\"email\":\"emma.wong@reqres.in\",\"first_name\":\"Emma\",\"last_name\":\"Wong\",\"avatar\":\"https:\/\/reqres.in\/img\/faces\/3-image.jpg\"},{\"id\":4,\"email\":\"eve.holt@reqres.in\",\"first_name\":\"Eve\",\"last_name\":\"Holt\",\"avatar\":\"https:\/\/reqres.in\/img\/faces\/4-image.jpg\"},{\"id\":5,\"email\":\"charles.morris@reqres.in\",\"first_name\":\"Charles\",\"last_name\":\"Morris\",\"avatar\":\"https:\/\/reqres.in\/img\/faces\/5-image.jpg\"},{\"id\":6,\"email\":\"tracey.ramos@reqres.in\",\"first_name\":\"Tracey\",\"last_name\":\"Ramos\",\"avatar\":\"https:\/\/reqres.in\/img\/faces\/6-image.jpg\"}],\"support\":{\"url\":\"https:\/\/reqres.in\/#support-heading\",\"text\":\"To keep ReqRes free, contributions towards server costs are appreciated!\"}}\n\n"},{"result":{"nanos":837600,"millis":0.8376,"status":"passed"},"step":{"line":38,"prefix":"Then","index":5,"text":"status 200"}},{"result":{"nanos":10799600,"millis":10.7996,"status":"passed"},"step":{"comments":["# And match response contains { id :1, name:'George',job:'Bluth',createdAt:'#notnull'}"],"line":40,"prefix":"Given","index":6,"text":"path response.id"}},{"result":{"nanos":1672700,"millis":1.6727,"status":"passed"},"step":{"line":41,"prefix":"And","index":7,"text":"print response"},"stepLog":"16:06:21.769 [print] {\n  \"page\": 1,\n  \"per_page\": 6,\n  \"total\": 12,\n  \"total_pages\": 2,\n  \"data\": [\n    {\n      \"id\": 1,\n      \"email\": \"george.bluth@reqres.in\",\n      \"first_name\": \"George\",\n      \"last_name\": \"Bluth\",\n      \"avatar\": \"https:\/\/reqres.in\/img\/faces\/1-image.jpg\"\n    },\n    {\n      \"id\": 2,\n      \"email\": \"janet.weaver@reqres.in\",\n      \"first_name\": \"Janet\",\n      \"last_name\": \"Weaver\",\n      \"avatar\": \"https:\/\/reqres.in\/img\/faces\/2-image.jpg\"\n    },\n    {\n      \"id\": 3,\n      \"email\": \"emma.wong@reqres.in\",\n      \"first_name\": \"Emma\",\n      \"last_name\": \"Wong\",\n      \"avatar\": \"https:\/\/reqres.in\/img\/faces\/3-image.jpg\"\n    },\n    {\n      \"id\": 4,\n      \"email\": \"eve.holt@reqres.in\",\n      \"first_name\": \"Eve\",\n      \"last_name\": \"Holt\",\n      \"avatar\": \"https:\/\/reqres.in\/img\/faces\/4-image.jpg\"\n    },\n    {\n      \"id\": 5,\n      \"email\": \"charles.morris@reqres.in\",\n      \"first_name\": \"Charles\",\n      \"last_name\": \"Morris\",\n      \"avatar\": \"https:\/\/reqres.in\/img\/faces\/5-image.jpg\"\n    },\n    {\n      \"id\": 6,\n      \"email\": \"tracey.ramos@reqres.in\",\n      \"first_name\": \"Tracey\",\n      \"last_name\": \"Ramos\",\n      \"avatar\": \"https:\/\/reqres.in\/img\/faces\/6-image.jpg\"\n    }\n  ],\n  \"support\": {\n    \"url\": \"https:\/\/reqres.in\/#support-heading\",\n    \"text\": \"To keep ReqRes free, contributions towards server costs are appreciated!\"\n  }\n}\n \n"}],"executorName":"main","line":24,"name":"get and retrieve a user name","description":"","durationMillis":175.3817,"startTime":1712226981592,"failed":false,"refId":"[2:24]","endTime":1712226981769,"exampleIndex":-1},{"sectionIndex":2,"stepResults":[{"result":{"nanos":492100,"millis":0.4921,"status":"passed"},"step":{"line":45,"prefix":"Given","index":0,"text":"url 'https:\/\/reqres.in\/api\/users\/'"}},{"result":{"nanos":413600,"millis":0.4136,"status":"passed"},"step":{"line":46,"prefix":"And","index":1,"text":"header Content-Type = 'application\/json'"}},{"result":{"nanos":4120200,"millis":4.1202,"status":"passed"},"step":{"line":47,"prefix":"And","index":2,"text":"configure ssl = true"}},{"result":{"nanos":3572800,"millis":3.5728,"status":"passed"},"step":{"endLine":55,"line":48,"prefix":"And","docString":"{\n          \"name\": \"George\",\n          \"job\": \"Bluth\"\n      }","index":3,"text":"request"}},{"result":{"nanos":503451700,"millis":503.4517,"status":"passed"},"step":{"line":56,"prefix":"When","index":4,"text":"method PUT"},"stepLog":"16:06:21.798 request:\n1 > PUT https:\/\/reqres.in\/api\/users\/\n1 > Content-Type: application\/json; charset=UTF-8\n1 > Content-Length: 31\n1 > Host: reqres.in\n1 > Connection: Keep-Alive\n1 > User-Agent: Apache-HttpClient\/4.5.12 (Java\/17.0.6)\n1 > Accept-Encoding: gzip,deflate\n{\"name\":\"George\",\"job\":\"Bluth\"}\n\n16:06:22.288 response time in milliseconds: 484\n1 < 200\n1 < Date: Thu, 04 Apr 2024 10:36:21 GMT\n1 < Content-Type: application\/json; charset=utf-8\n1 < Transfer-Encoding: chunked\n1 < Connection: keep-alive\n1 < Report-To: {\"group\":\"heroku-nel\",\"max_age\":3600,\"endpoints\":[{\"url\":\"https:\/\/nel.heroku.com\/reports?ts=1712226981&sid=c4c9725f-1ab0-44d8-820f-430df2718e11&s=C8NR%2FOhHfOmUzy4OYAygykZ7sQvRxOGQyDiN%2FYKYYP0%3D\"}]}\n1 < Reporting-Endpoints: heroku-nel=https:\/\/nel.heroku.com\/reports?ts=1712226981&sid=c4c9725f-1ab0-44d8-820f-430df2718e11&s=C8NR%2FOhHfOmUzy4OYAygykZ7sQvRxOGQyDiN%2FYKYYP0%3D\n1 < Nel: {\"report_to\":\"heroku-nel\",\"max_age\":3600,\"success_fraction\":0.005,\"failure_fraction\":0.05,\"response_headers\":[\"Via\"]}\n1 < X-Powered-By: Express\n1 < Access-Control-Allow-Origin: *\n1 < Etag: W\/\"46-f4D\/bN0DjiiCkQHBBuwGU\/XGmZs\"\n1 < Via: 1.1 vegur\n1 < CF-Cache-Status: DYNAMIC\n1 < Vary: Accept-Encoding\n1 < Server: cloudflare\n1 < CF-RAY: 86f0a82a1bd93a81-BOM\n{\"name\":\"George\",\"job\":\"Bluth\",\"updatedAt\":\"2024-04-04T10:36:21.759Z\"}\n\n"},{"result":{"nanos":32600,"millis":0.0326,"status":"passed"},"step":{"line":57,"prefix":"Then","index":5,"text":"status 200"}},{"result":{"nanos":931700,"millis":0.9317,"status":"passed"},"step":{"comments":["# And match response contains { id :1, name:'George',job:'Bluth',createdAt:'#notnull'}"],"line":59,"prefix":"Given","index":6,"text":"path response.id"}},{"result":{"nanos":2708000,"millis":2.708,"status":"passed"},"step":{"line":60,"prefix":"And","index":7,"text":"print response"},"stepLog":"16:06:22.304 [print] {\n  \"name\": \"George\",\n  \"job\": \"Bluth\",\n  \"updatedAt\": \"2024-04-04T10:36:21.759Z\"\n}\n \n"}],"executorName":"main","line":44,"name":"put and retrieve a user name","description":"","durationMillis":515.7227,"startTime":1712226981786,"failed":false,"refId":"[3:44]","endTime":1712226982304,"exampleIndex":-1},{"sectionIndex":3,"stepResults":[{"result":{"nanos":461600,"millis":0.4616,"status":"passed"},"step":{"line":63,"prefix":"Given","index":0,"text":"url 'https:\/\/reqres.in\/api\/users\/'"}},{"result":{"nanos":856100,"millis":0.8561,"status":"passed"},"step":{"line":64,"prefix":"And","index":1,"text":"header Content-Type = 'application\/json'"}},{"result":{"nanos":2533900,"millis":2.5339,"status":"passed"},"step":{"line":65,"prefix":"And","index":2,"text":"configure ssl = true"}},{"result":{"nanos":45416200,"errorMessage":"js failed:\n>>>>\n01: \"name\": \"George\" \n02: \"job\": \"Bluth\"\n03:          \n04:       }\n<<<<\norg.graalvm.polyglot.PolyglotException: SyntaxError: Unnamed:1:6 Expected ; but found :\r\n\"name\": \"George\" \r\n      ^\nUnnamed:2:5 Expected ; but found :\r\n\"job\": \"Bluth\"\r\n     ^\nUnnamed:4:6 Expected eof but found }\r\n      }\r\n      ^\n\n- org.graalvm.polyglot.Context.eval(Context.java:425)\n- com.intuit.karate.graal.JsEngine.evalForValue(JsEngine.java:139)\n- com.intuit.karate.graal.JsEngine.eval(JsEngine.java:135)\n- com.intuit.karate.core.ScenarioEngine.evalJs(ScenarioEngine.java:1196)\n- com.intuit.karate.core.ScenarioEngine.evalKarateExpression(ScenarioEngine.java:2149)\n- com.intuit.karate.core.ScenarioEngine.evalKarateExpression(ScenarioEngine.java:2068)\n- com.intuit.karate.core.ScenarioEngine.request(ScenarioEngine.java:534)\n\nsrc\/test\/java\/feature\/getApi.feature:66","millis":45.4162,"status":"failed"},"step":{"endLine":73,"line":66,"prefix":"And","docString":"\"name\": \"George\" \n\"job\": \"Bluth\"\n         \n      }","index":3,"text":"request"},"stepLog":"16:06:22.389 src\/test\/java\/feature\/getApi.feature:66\nAnd request\n\"\"\"\n\"name\": \"George\" \n\"job\": \"Bluth\"\n         \n      }\n\"\"\"\njs failed:\n>>>>\n01: \"name\": \"George\" \n02: \"job\": \"Bluth\"\n03:          \n04:       }\n<<<<\norg.graalvm.polyglot.PolyglotException: SyntaxError: Unnamed:1:6 Expected ; but found :\r\n\"name\": \"George\" \r\n      ^\nUnnamed:2:5 Expected ; but found :\r\n\"job\": \"Bluth\"\r\n     ^\nUnnamed:4:6 Expected eof but found }\r\n      }\r\n      ^\n\n- org.graalvm.polyglot.Context.eval(Context.java:425)\n- com.intuit.karate.graal.JsEngine.evalForValue(JsEngine.java:139)\n- com.intuit.karate.graal.JsEngine.eval(JsEngine.java:135)\n- com.intuit.karate.core.ScenarioEngine.evalJs(ScenarioEngine.java:1196)\n- com.intuit.karate.core.ScenarioEngine.evalKarateExpression(ScenarioEngine.java:2149)\n- com.intuit.karate.core.ScenarioEngine.evalKarateExpression(ScenarioEngine.java:2068)\n- com.intuit.karate.core.ScenarioEngine.request(ScenarioEngine.java:534)\n\nsrc\/test\/java\/feature\/getApi.feature:66\n"},{"result":{"nanos":0,"millis":0.0,"status":"skipped"},"step":{"line":74,"prefix":"When","index":4,"text":"method PATCH"}},{"result":{"nanos":0,"millis":0.0,"status":"skipped"},"step":{"line":75,"prefix":"Then","index":5,"text":"status 200"}},{"result":{"nanos":0,"millis":0.0,"status":"skipped"},"step":{"comments":["# And match response contains { id :1, name:'George',job:'Bluth',createdAt:'#notnull'}"],"line":77,"prefix":"Given","index":6,"text":"path response.id"}},{"result":{"nanos":0,"millis":0.0,"status":"skipped"},"step":{"line":78,"prefix":"And","index":7,"text":"print response"}}],"line":62,"description":"","durationMillis":49.2678,"failed":true,"error":"js failed:\n>>>>\n01: \"name\": \"George\" \n02: \"job\": \"Bluth\"\n03:          \n04:       }\n<<<<\norg.graalvm.polyglot.PolyglotException: SyntaxError: Unnamed:1:6 Expected ; but found :\r\n\"name\": \"George\" \r\n      ^\nUnnamed:2:5 Expected ; but found :\r\n\"job\": \"Bluth\"\r\n     ^\nUnnamed:4:6 Expected eof but found }\r\n      }\r\n      ^\n\n- org.graalvm.polyglot.Context.eval(Context.java:425)\n- com.intuit.karate.graal.JsEngine.evalForValue(JsEngine.java:139)\n- com.intuit.karate.graal.JsEngine.eval(JsEngine.java:135)\n- com.intuit.karate.core.ScenarioEngine.evalJs(ScenarioEngine.java:1196)\n- com.intuit.karate.core.ScenarioEngine.evalKarateExpression(ScenarioEngine.java:2149)\n- com.intuit.karate.core.ScenarioEngine.evalKarateExpression(ScenarioEngine.java:2068)\n- com.intuit.karate.core.ScenarioEngine.request(ScenarioEngine.java:534)\n\nsrc\/test\/java\/feature\/getApi.feature:66","executorName":"main","name":"Patch and retrieve a user name","startTime":1712226982331,"refId":"[4:62]","endTime":1712226982389,"exampleIndex":-1},{"sectionIndex":4,"stepResults":[{"result":{"nanos":301100,"millis":0.3011,"status":"passed"},"step":{"line":81,"prefix":"Given","index":0,"text":"url 'https:\/\/reqres.in\/api\/users\/'"}},{"result":{"nanos":246800,"millis":0.2468,"status":"passed"},"step":{"line":82,"prefix":"And","index":1,"text":"header Content-Type = 'application\/json'"}},{"result":{"nanos":1301300,"millis":1.3013,"status":"passed"},"step":{"line":83,"prefix":"And","index":2,"text":"configure ssl = true"}},{"result":{"nanos":445500,"millis":0.4455,"status":"passed"},"step":{"endLine":94,"line":84,"prefix":"And","docString":"{ \n          \"name\": \"George\",\n      \n          \"job\": \"Bluth\"\n     \n      }","index":3,"text":"request"}},{"result":{"nanos":494645000,"millis":494.645,"status":"passed"},"step":{"line":95,"prefix":"When","index":4,"text":"method Delete"},"stepLog":"16:06:22.411 request:\n1 > DELETE https:\/\/reqres.in\/api\/users\/\n1 > Content-Type: application\/json; charset=UTF-8\n1 > Content-Length: 31\n1 > Host: reqres.in\n1 > Connection: Keep-Alive\n1 > User-Agent: Apache-HttpClient\/4.5.12 (Java\/17.0.6)\n1 > Accept-Encoding: gzip,deflate\n{\"name\":\"George\",\"job\":\"Bluth\"}\n\n16:06:22.899 response time in milliseconds: 485\n1 < 204\n1 < Date: Thu, 04 Apr 2024 10:36:22 GMT\n1 < Content-Length: 0\n1 < Connection: keep-alive\n1 < Report-To: {\"group\":\"heroku-nel\",\"max_age\":3600,\"endpoints\":[{\"url\":\"https:\/\/nel.heroku.com\/reports?ts=1712226982&sid=c4c9725f-1ab0-44d8-820f-430df2718e11&s=GhY13KP6EzYGzVbbVAYhtgGmR%2Bim7NDbjX1VolzrBug%3D\"}]}\n1 < Reporting-Endpoints: heroku-nel=https:\/\/nel.heroku.com\/reports?ts=1712226982&sid=c4c9725f-1ab0-44d8-820f-430df2718e11&s=GhY13KP6EzYGzVbbVAYhtgGmR%2Bim7NDbjX1VolzrBug%3D\n1 < Nel: {\"report_to\":\"heroku-nel\",\"max_age\":3600,\"success_fraction\":0.005,\"failure_fraction\":0.05,\"response_headers\":[\"Via\"]}\n1 < X-Powered-By: Express\n1 < Access-Control-Allow-Origin: *\n1 < Etag: W\/\"2-vyGp6PvFo4RvsFtPoIWeCReyIC8\"\n1 < Via: 1.1 vegur\n1 < CF-Cache-Status: DYNAMIC\n1 < Server: cloudflare\n1 < CF-RAY: 86f0a82debc14436-BOM\n\n\n"},{"result":{"nanos":50900,"millis":0.0509,"status":"passed"},"step":{"line":96,"prefix":"Then","index":5,"text":"status 204"}},{"result":{"nanos":4685500,"millis":4.6855,"status":"passed"},"step":{"comments":["# And match response contains { id :1, name:'George',job:'Bluth',createdAt:'#notnull'}"],"line":98,"prefix":"Given","index":6,"text":"path response.id"}},{"result":{"nanos":1801300,"millis":1.8013,"status":"passed"},"step":{"line":99,"prefix":"And","index":7,"text":"print response"},"stepLog":"16:06:22.910 [print]  \n"}],"executorName":"main","line":80,"name":"Delete and retrieve a user name","description":"","durationMillis":503.4774,"startTime":1712226982405,"failed":false,"refId":"[5:80]","endTime":1712226982910,"exampleIndex":-1}],"callDepth":0,"name":"karate example","description":"","resultDate":"2024-04-04 04:06:22 pm","durationMillis":3644.1057,"passedCount":4}