{"failedCount":1,"prefixedPath":"src\/test\/java\/feature\/getApi.feature","packageQualifiedName":"src.test.java.feature.getApi","loopIndex":-1,"relativePath":"src\/test\/java\/feature\/getApi.feature","scenarioResults":[{"sectionIndex":0,"stepResults":[{"result":{"nanos":179140200,"millis":179.1402,"status":"passed"},"step":{"line":5,"prefix":"Given","index":0,"text":"url 'https:\/\/reqres.in\/api\/users\/'"}},{"result":{"nanos":1499800,"millis":1.4998,"status":"passed"},"step":{"line":6,"prefix":"And","index":1,"text":"header Content-Type = 'application\/json'"}},{"result":{"nanos":468902900,"millis":468.9029,"status":"passed"},"step":{"line":7,"prefix":"And","index":2,"text":"configure ssl = true"}},{"result":{"nanos":97918100,"millis":97.9181,"status":"passed"},"step":{"endLine":16,"line":8,"prefix":"And","docString":"{  \n          \"name\": \"harshada\",\n          \"job\": \"testernew\"\n    }","index":3,"text":"request"}},{"result":{"nanos":1487661500,"millis":1487.6615,"status":"passed"},"step":{"line":17,"prefix":"When","index":4,"text":"method POST"},"stepLog":"16:08:20.849 request:\n1 > POST https:\/\/reqres.in\/api\/users\/\n1 > Content-Type: application\/json; charset=UTF-8\n1 > Content-Length: 37\n1 > Host: reqres.in\n1 > Connection: Keep-Alive\n1 > User-Agent: Apache-HttpClient\/4.5.12 (Java\/17.0.6)\n1 > Accept-Encoding: gzip,deflate\n{\"name\":\"harshada\",\"job\":\"testernew\"}\n\n16:08:21.929 response time in milliseconds: 1068\n1 < 201\n1 < Date: Thu, 04 Apr 2024 10:38:21 GMT\n1 < Content-Type: application\/json; charset=utf-8\n1 < Content-Length: 87\n1 < Connection: keep-alive\n1 < Report-To: {\"group\":\"heroku-nel\",\"max_age\":3600,\"endpoints\":[{\"url\":\"https:\/\/nel.heroku.com\/reports?ts=1712227101&sid=c4c9725f-1ab0-44d8-820f-430df2718e11&s=LDocGWpw8N5WE%2BuNHn1wfLDQJBwBQSiTFdvUI%2BYqJ6I%3D\"}]}\n1 < Reporting-Endpoints: heroku-nel=https:\/\/nel.heroku.com\/reports?ts=1712227101&sid=c4c9725f-1ab0-44d8-820f-430df2718e11&s=LDocGWpw8N5WE%2BuNHn1wfLDQJBwBQSiTFdvUI%2BYqJ6I%3D\n1 < Nel: {\"report_to\":\"heroku-nel\",\"max_age\":3600,\"success_fraction\":0.005,\"failure_fraction\":0.05,\"response_headers\":[\"Via\"]}\n1 < X-Powered-By: Express\n1 < Access-Control-Allow-Origin: *\n1 < Etag: W\/\"57-i0u0cbhO9eDD1mnXM88fqJ5RXrk\"\n1 < Via: 1.1 vegur\n1 < CF-Cache-Status: DYNAMIC\n1 < Server: cloudflare\n1 < CF-RAY: 86f0ab156ad3f446-BOM\n{\"name\":\"harshada\",\"job\":\"testernew\",\"id\":\"115\",\"createdAt\":\"2024-04-04T10:38:21.330Z\"}\n\n"},{"result":{"nanos":37400,"millis":0.0374,"status":"passed"},"step":{"line":18,"prefix":"Then","index":5,"text":"status 201"}},{"result":{"nanos":112487000,"millis":112.487,"status":"passed"},"step":{"line":19,"prefix":"And","index":6,"text":"match response == { id :'#notnull', name:'harshada',job:'testernew',createdAt:'#notnull'}"}},{"result":{"nanos":50882500,"millis":50.8825,"status":"passed"},"step":{"line":20,"prefix":"Given","index":7,"text":"path response.id"}},{"result":{"nanos":141494000,"millis":141.494,"status":"passed"},"step":{"line":21,"prefix":"And","index":8,"text":"print response"},"stepLog":"16:08:22.244 [print] {\n  \"name\": \"harshada\",\n  \"job\": \"testernew\",\n  \"id\": \"115\",\n  \"createdAt\": \"2024-04-04T10:38:21.330Z\"\n}\n \n"}],"executorName":"main","line":4,"name":"create and retrieve a user name","description":"","durationMillis":2540.0234,"startTime":1712227099665,"failed":false,"refId":"[1:4]","endTime":1712227102246,"exampleIndex":-1},{"sectionIndex":1,"stepResults":[{"result":{"nanos":2253200,"millis":2.2532,"status":"passed"},"step":{"line":25,"prefix":"Given","index":0,"text":"url 'https:\/\/reqres.in\/api\/users\/'"}},{"result":{"nanos":1059600,"millis":1.0596,"status":"passed"},"step":{"line":26,"prefix":"And","index":1,"text":"header Content-Type = 'application\/json'"}},{"result":{"nanos":3082100,"millis":3.0821,"status":"passed"},"step":{"line":27,"prefix":"And","index":2,"text":"configure ssl = true"}},{"result":{"nanos":1320300,"millis":1.3203,"status":"passed"},"step":{"endLine":36,"line":28,"prefix":"And","docString":"{\n          \"name\": \"George\",\n          \"job\": \"Bluth\"\n    \n      }","index":3,"text":"request"}},{"result":{"nanos":566705400,"millis":566.7054,"status":"passed"},"step":{"line":37,"prefix":"When","index":4,"text":"method GET"},"stepLog":"16:08:22.286 request:\n1 > GET https:\/\/reqres.in\/api\/users\/\n1 > Content-Type: application\/json; charset=UTF-8\n1 > Content-Length: 31\n1 > Host: reqres.in\n1 > Connection: Keep-Alive\n1 > User-Agent: Apache-HttpClient\/4.5.12 (Java\/17.0.6)\n1 > Accept-Encoding: gzip,deflate\n{\"name\":\"George\",\"job\":\"Bluth\"}\n\n16:08:22.836 response time in milliseconds: 545\n1 < 200\n1 < Date: Thu, 04 Apr 2024 10:38:22 GMT\n1 < Content-Type: application\/json; charset=utf-8\n1 < Transfer-Encoding: chunked\n1 < Connection: keep-alive\n1 < Report-To: {\"group\":\"heroku-nel\",\"max_age\":3600,\"endpoints\":[{\"url\":\"https:\/\/nel.heroku.com\/reports?ts=1712147647&sid=c4c9725f-1ab0-44d8-820f-430df2718e11&s=GSfMk8qDf8E5PmhEF7zaW5YN8Q73qcjnBOL0zmG1sq4%3D\"}]}\n1 < Reporting-Endpoints: heroku-nel=https:\/\/nel.heroku.com\/reports?ts=1712147647&sid=c4c9725f-1ab0-44d8-820f-430df2718e11&s=GSfMk8qDf8E5PmhEF7zaW5YN8Q73qcjnBOL0zmG1sq4%3D\n1 < Nel: {\"report_to\":\"heroku-nel\",\"max_age\":3600,\"success_fraction\":0.005,\"failure_fraction\":0.05,\"response_headers\":[\"Via\"]}\n1 < X-Powered-By: Express\n1 < Access-Control-Allow-Origin: *\n1 < Etag: W\/\"3e4-2RLXvr5wTg9YQ6aH95CkYoFNuO8\"\n1 < Via: 1.1 vegur\n1 < Cache-Control: max-age=14400\n1 < CF-Cache-Status: REVALIDATED\n1 < Vary: Accept-Encoding\n1 < Server: cloudflare\n1 < CF-RAY: 86f0ab1b5bfc3bc2-BOM\n{\"page\":1,\"per_page\":6,\"total\":12,\"total_pages\":2,\"data\":[{\"id\":1,\"email\":\"george.bluth@reqres.in\",\"first_name\":\"George\",\"last_name\":\"Bluth\",\"avatar\":\"https:\/\/reqres.in\/img\/faces\/1-image.jpg\"},{\"id\":2,\"email\":\"janet.weaver@reqres.in\",\"first_name\":\"Janet\",\"last_name\":\"Weaver\",\"avatar\":\"https:\/\/reqres.in\/img\/faces\/2-image.jpg\"},{\"id\":3,\"email\":\"emma.wong@reqres.in\",\"first_name\":\"Emma\",\"last_name\":\"Wong\",\"avatar\":\"https:\/\/reqres.in\/img\/faces\/3-image.jpg\"},{\"id\":4,\"email\":\"eve.holt@reqres.in\",\"first_name\":\"Eve\",\"last_name\":\"Holt\",\"avatar\":\"https:\/\/reqres.in\/img\/faces\/4-image.jpg\"},{\"id\":5,\"email\":\"charles.morris@reqres.in\",\"first_name\":\"Charles\",\"last_name\":\"Morris\",\"avatar\":\"https:\/\/reqres.in\/img\/faces\/5-image.jpg\"},{\"id\":6,\"email\":\"tracey.ramos@reqres.in\",\"first_name\":\"Tracey\",\"last_name\":\"Ramos\",\"avatar\":\"https:\/\/reqres.in\/img\/faces\/6-image.jpg\"}],\"support\":{\"url\":\"https:\/\/reqres.in\/#support-heading\",\"text\":\"To keep ReqRes free, contributions towards server costs are appreciated!\"}}\n\n"},{"result":{"nanos":25600,"millis":0.0256,"status":"passed"},"step":{"line":38,"prefix":"Then","index":5,"text":"status 200"}},{"result":{"nanos":14283000,"millis":14.283,"status":"passed"},"step":{"comments":["# And match response contains { id :1, name:'George',job:'Bluth',createdAt:'#notnull'}"],"line":40,"prefix":"Given","index":6,"text":"path response.id"}},{"result":{"nanos":3242900,"millis":3.2429,"status":"passed"},"step":{"line":41,"prefix":"And","index":7,"text":"print response"},"stepLog":"16:08:22.858 [print] {\n  \"page\": 1,\n  \"per_page\": 6,\n  \"total\": 12,\n  \"total_pages\": 2,\n  \"data\": [\n    {\n      \"id\": 1,\n      \"email\": \"george.bluth@reqres.in\",\n      \"first_name\": \"George\",\n      \"last_name\": \"Bluth\",\n      \"avatar\": \"https:\/\/reqres.in\/img\/faces\/1-image.jpg\"\n    },\n    {\n      \"id\": 2,\n      \"email\": \"janet.weaver@reqres.in\",\n      \"first_name\": \"Janet\",\n      \"last_name\": \"Weaver\",\n      \"avatar\": \"https:\/\/reqres.in\/img\/faces\/2-image.jpg\"\n    },\n    {\n      \"id\": 3,\n      \"email\": \"emma.wong@reqres.in\",\n      \"first_name\": \"Emma\",\n      \"last_name\": \"Wong\",\n      \"avatar\": \"https:\/\/reqres.in\/img\/faces\/3-image.jpg\"\n    },\n    {\n      \"id\": 4,\n      \"email\": \"eve.holt@reqres.in\",\n      \"first_name\": \"Eve\",\n      \"last_name\": \"Holt\",\n      \"avatar\": \"https:\/\/reqres.in\/img\/faces\/4-image.jpg\"\n    },\n    {\n      \"id\": 5,\n      \"email\": \"charles.morris@reqres.in\",\n      \"first_name\": \"Charles\",\n      \"last_name\": \"Morris\",\n      \"avatar\": \"https:\/\/reqres.in\/img\/faces\/5-image.jpg\"\n    },\n    {\n      \"id\": 6,\n      \"email\": \"tracey.ramos@reqres.in\",\n      \"first_name\": \"Tracey\",\n      \"last_name\": \"Ramos\",\n      \"avatar\": \"https:\/\/reqres.in\/img\/faces\/6-image.jpg\"\n    }\n  ],\n  \"support\": {\n    \"url\": \"https:\/\/reqres.in\/#support-heading\",\n    \"text\": \"To keep ReqRes free, contributions towards server costs are appreciated!\"\n  }\n}\n \n"}],"executorName":"main","line":24,"name":"get and retrieve a user name","description":"","durationMillis":591.9721,"startTime":1712227102265,"failed":false,"refId":"[2:24]","endTime":1712227102859,"exampleIndex":-1},{"sectionIndex":2,"stepResults":[{"result":{"nanos":436100,"millis":0.4361,"status":"passed"},"step":{"line":45,"prefix":"Given","index":0,"text":"url 'https:\/\/reqres.in\/api\/users\/'"}},{"result":{"nanos":308800,"millis":0.3088,"status":"passed"},"step":{"line":46,"prefix":"And","index":1,"text":"header Content-Type = 'application\/json'"}},{"result":{"nanos":1777900,"millis":1.7779,"status":"passed"},"step":{"line":47,"prefix":"And","index":2,"text":"configure ssl = true"}},{"result":{"nanos":531300,"millis":0.5313,"status":"passed"},"step":{"endLine":55,"line":48,"prefix":"And","docString":"{\n          \"name\": \"George\",\n          \"job\": \"Bluth\"\n      }","index":3,"text":"request"}},{"result":{"nanos":522939200,"millis":522.9392,"status":"passed"},"step":{"line":56,"prefix":"When","index":4,"text":"method PUT"},"stepLog":"16:08:22.883 request:\n1 > PUT https:\/\/reqres.in\/api\/users\/\n1 > Content-Type: application\/json; charset=UTF-8\n1 > Content-Length: 31\n1 > Host: reqres.in\n1 > Connection: Keep-Alive\n1 > User-Agent: Apache-HttpClient\/4.5.12 (Java\/17.0.6)\n1 > Accept-Encoding: gzip,deflate\n{\"name\":\"George\",\"job\":\"Bluth\"}\n\n16:08:23.392 response time in milliseconds: 497\n1 < 200\n1 < Date: Thu, 04 Apr 2024 10:38:22 GMT\n1 < Content-Type: application\/json; charset=utf-8\n1 < Transfer-Encoding: chunked\n1 < Connection: keep-alive\n1 < Report-To: {\"group\":\"heroku-nel\",\"max_age\":3600,\"endpoints\":[{\"url\":\"https:\/\/nel.heroku.com\/reports?ts=1712227102&sid=c4c9725f-1ab0-44d8-820f-430df2718e11&s=0tapPl3pHxlqYyb9dnqLFlI%2Faxm%2FC5Z1tcEk9DNM2hg%3D\"}]}\n1 < Reporting-Endpoints: heroku-nel=https:\/\/nel.heroku.com\/reports?ts=1712227102&sid=c4c9725f-1ab0-44d8-820f-430df2718e11&s=0tapPl3pHxlqYyb9dnqLFlI%2Faxm%2FC5Z1tcEk9DNM2hg%3D\n1 < Nel: {\"report_to\":\"heroku-nel\",\"max_age\":3600,\"success_fraction\":0.005,\"failure_fraction\":0.05,\"response_headers\":[\"Via\"]}\n1 < X-Powered-By: Express\n1 < Access-Control-Allow-Origin: *\n1 < Etag: W\/\"46-g1FERc5ySqZhrFr2TmkjRS5cdiQ\"\n1 < Via: 1.1 vegur\n1 < CF-Cache-Status: DYNAMIC\n1 < Vary: Accept-Encoding\n1 < Server: cloudflare\n1 < CF-RAY: 86f0ab1eeba031f3-BOM\n{\"name\":\"George\",\"job\":\"Bluth\",\"updatedAt\":\"2024-04-04T10:38:22.857Z\"}\n\n"},{"result":{"nanos":34500,"millis":0.0345,"status":"passed"},"step":{"line":57,"prefix":"Then","index":5,"text":"status 200"}},{"result":{"nanos":613900,"millis":0.6139,"status":"passed"},"step":{"comments":["# And match response contains { id :1, name:'George',job:'Bluth',createdAt:'#notnull'}"],"line":59,"prefix":"Given","index":6,"text":"path response.id"}},{"result":{"nanos":1325200,"millis":1.3252,"status":"passed"},"step":{"line":60,"prefix":"And","index":7,"text":"print response"},"stepLog":"16:08:23.406 [print] {\n  \"name\": \"George\",\n  \"job\": \"Bluth\",\n  \"updatedAt\": \"2024-04-04T10:38:22.857Z\"\n}\n \n"}],"executorName":"main","line":44,"name":"put and retrieve a user name","description":"","durationMillis":527.9669,"startTime":1712227102876,"failed":false,"refId":"[3:44]","endTime":1712227103406,"exampleIndex":-1},{"sectionIndex":3,"stepResults":[{"result":{"nanos":400800,"millis":0.4008,"status":"passed"},"step":{"line":63,"prefix":"Given","index":0,"text":"url 'https:\/\/reqres.in\/api\/users\/'"}},{"result":{"nanos":511500,"millis":0.5115,"status":"passed"},"step":{"line":64,"prefix":"And","index":1,"text":"header Content-Type = 'application\/json'"}},{"result":{"nanos":1893500,"millis":1.8935,"status":"passed"},"step":{"line":65,"prefix":"And","index":2,"text":"configure ssl = true"}},{"result":{"nanos":45401200,"errorMessage":"js failed:\n>>>>\n01: \"name\": \"George\", \n02: \"job\": \"Bluth\"\n03:          \n04:       }\n<<<<\norg.graalvm.polyglot.PolyglotException: SyntaxError: Unnamed:1:6 Expected ; but found :\r\n\"name\": \"George\", \r\n      ^\nUnnamed:2:5 Expected ; but found :\r\n\"job\": \"Bluth\"\r\n     ^\nUnnamed:4:6 Expected eof but found }\r\n      }\r\n      ^\n\n- org.graalvm.polyglot.Context.eval(Context.java:425)\n- com.intuit.karate.graal.JsEngine.evalForValue(JsEngine.java:139)\n- com.intuit.karate.graal.JsEngine.eval(JsEngine.java:135)\n- com.intuit.karate.core.ScenarioEngine.evalJs(ScenarioEngine.java:1196)\n- com.intuit.karate.core.ScenarioEngine.evalKarateExpression(ScenarioEngine.java:2149)\n- com.intuit.karate.core.ScenarioEngine.evalKarateExpression(ScenarioEngine.java:2068)\n- com.intuit.karate.core.ScenarioEngine.request(ScenarioEngine.java:534)\n\nsrc\/test\/java\/feature\/getApi.feature:66","millis":45.4012,"status":"failed"},"step":{"endLine":73,"line":66,"prefix":"And","docString":"\"name\": \"George\", \n\"job\": \"Bluth\"\n         \n      }","index":3,"text":"request"},"stepLog":"16:08:23.485 src\/test\/java\/feature\/getApi.feature:66\nAnd request\n\"\"\"\n\"name\": \"George\", \n\"job\": \"Bluth\"\n         \n      }\n\"\"\"\njs failed:\n>>>>\n01: \"name\": \"George\", \n02: \"job\": \"Bluth\"\n03:          \n04:       }\n<<<<\norg.graalvm.polyglot.PolyglotException: SyntaxError: Unnamed:1:6 Expected ; but found :\r\n\"name\": \"George\", \r\n      ^\nUnnamed:2:5 Expected ; but found :\r\n\"job\": \"Bluth\"\r\n     ^\nUnnamed:4:6 Expected eof but found }\r\n      }\r\n      ^\n\n- org.graalvm.polyglot.Context.eval(Context.java:425)\n- com.intuit.karate.graal.JsEngine.evalForValue(JsEngine.java:139)\n- com.intuit.karate.graal.JsEngine.eval(JsEngine.java:135)\n- com.intuit.karate.core.ScenarioEngine.evalJs(ScenarioEngine.java:1196)\n- com.intuit.karate.core.ScenarioEngine.evalKarateExpression(ScenarioEngine.java:2149)\n- com.intuit.karate.core.ScenarioEngine.evalKarateExpression(ScenarioEngine.java:2068)\n- com.intuit.karate.core.ScenarioEngine.request(ScenarioEngine.java:534)\n\nsrc\/test\/java\/feature\/getApi.feature:66\n"},{"result":{"nanos":0,"millis":0.0,"status":"skipped"},"step":{"line":74,"prefix":"When","index":4,"text":"method PATCH"}},{"result":{"nanos":0,"millis":0.0,"status":"skipped"},"step":{"line":75,"prefix":"Then","index":5,"text":"status 200"}},{"result":{"nanos":0,"millis":0.0,"status":"skipped"},"step":{"comments":["# And match response contains { id :1, name:'George',job:'Bluth',createdAt:'#notnull'}"],"line":77,"prefix":"Given","index":6,"text":"path response.id"}},{"result":{"nanos":0,"millis":0.0,"status":"skipped"},"step":{"line":78,"prefix":"And","index":7,"text":"print response"}}],"line":62,"description":"","durationMillis":48.207,"failed":true,"error":"js failed:\n>>>>\n01: \"name\": \"George\", \n02: \"job\": \"Bluth\"\n03:          \n04:       }\n<<<<\norg.graalvm.polyglot.PolyglotException: SyntaxError: Unnamed:1:6 Expected ; but found :\r\n\"name\": \"George\", \r\n      ^\nUnnamed:2:5 Expected ; but found :\r\n\"job\": \"Bluth\"\r\n     ^\nUnnamed:4:6 Expected eof but found }\r\n      }\r\n      ^\n\n- org.graalvm.polyglot.Context.eval(Context.java:425)\n- com.intuit.karate.graal.JsEngine.evalForValue(JsEngine.java:139)\n- com.intuit.karate.graal.JsEngine.eval(JsEngine.java:135)\n- com.intuit.karate.core.ScenarioEngine.evalJs(ScenarioEngine.java:1196)\n- com.intuit.karate.core.ScenarioEngine.evalKarateExpression(ScenarioEngine.java:2149)\n- com.intuit.karate.core.ScenarioEngine.evalKarateExpression(ScenarioEngine.java:2068)\n- com.intuit.karate.core.ScenarioEngine.request(ScenarioEngine.java:534)\n\nsrc\/test\/java\/feature\/getApi.feature:66","executorName":"main","name":"Patch and retrieve a user name","startTime":1712227103427,"refId":"[4:62]","endTime":1712227103485,"exampleIndex":-1},{"sectionIndex":4,"stepResults":[{"result":{"nanos":823100,"millis":0.8231,"status":"passed"},"step":{"line":81,"prefix":"Given","index":0,"text":"url 'https:\/\/reqres.in\/api\/users\/'"}},{"result":{"nanos":322800,"millis":0.3228,"status":"passed"},"step":{"line":82,"prefix":"And","index":1,"text":"header Content-Type = 'application\/json'"}},{"result":{"nanos":1442200,"millis":1.4422,"status":"passed"},"step":{"line":83,"prefix":"And","index":2,"text":"configure ssl = true"}},{"result":{"nanos":512600,"millis":0.5126,"status":"passed"},"step":{"endLine":93,"line":84,"prefix":"And","docString":"{ \n          \"name\": \"George\",\n      \n          \"job\": \"Bluth\"\n      }","index":3,"text":"request"}},{"result":{"nanos":518667100,"millis":518.6671,"status":"passed"},"step":{"line":94,"prefix":"When","index":4,"text":"method Delete"},"stepLog":"16:08:23.509 request:\n1 > DELETE https:\/\/reqres.in\/api\/users\/\n1 > Content-Type: application\/json; charset=UTF-8\n1 > Content-Length: 31\n1 > Host: reqres.in\n1 > Connection: Keep-Alive\n1 > User-Agent: Apache-HttpClient\/4.5.12 (Java\/17.0.6)\n1 > Accept-Encoding: gzip,deflate\n{\"name\":\"George\",\"job\":\"Bluth\"}\n\n16:08:24.019 response time in milliseconds: 506\n1 < 204\n1 < Date: Thu, 04 Apr 2024 10:38:23 GMT\n1 < Content-Length: 0\n1 < Connection: keep-alive\n1 < Report-To: {\"group\":\"heroku-nel\",\"max_age\":3600,\"endpoints\":[{\"url\":\"https:\/\/nel.heroku.com\/reports?ts=1712227103&sid=c4c9725f-1ab0-44d8-820f-430df2718e11&s=Rcgjz%2FsdsFMvwaJepggKNp2SPFjkRYA7DWM%2BJXD1VUA%3D\"}]}\n1 < Reporting-Endpoints: heroku-nel=https:\/\/nel.heroku.com\/reports?ts=1712227103&sid=c4c9725f-1ab0-44d8-820f-430df2718e11&s=Rcgjz%2FsdsFMvwaJepggKNp2SPFjkRYA7DWM%2BJXD1VUA%3D\n1 < Nel: {\"report_to\":\"heroku-nel\",\"max_age\":3600,\"success_fraction\":0.005,\"failure_fraction\":0.05,\"response_headers\":[\"Via\"]}\n1 < X-Powered-By: Express\n1 < Access-Control-Allow-Origin: *\n1 < Etag: W\/\"2-vyGp6PvFo4RvsFtPoIWeCReyIC8\"\n1 < Via: 1.1 vegur\n1 < CF-Cache-Status: DYNAMIC\n1 < Server: cloudflare\n1 < CF-RAY: 86f0ab22cf8585f7-BOM\n\n\n"},{"result":{"nanos":52100,"millis":0.0521,"status":"passed"},"step":{"line":95,"prefix":"Then","index":5,"text":"status 204"}},{"result":{"nanos":4272500,"millis":4.2725,"status":"passed"},"step":{"comments":["# And match response contains { id :1, name:'George',job:'Bluth',createdAt:'#notnull'}"],"line":97,"prefix":"Given","index":6,"text":"path response.id"}},{"result":{"nanos":2891600,"millis":2.8916,"status":"passed"},"step":{"line":98,"prefix":"And","index":7,"text":"print response"},"stepLog":"16:08:24.033 [print]  \n"}],"executorName":"main","line":80,"name":"Delete and retrieve a user name","description":"","durationMillis":528.984,"startTime":1712227103502,"failed":false,"refId":"[5:80]","endTime":1712227104033,"exampleIndex":-1}],"callDepth":0,"name":"karate example","description":"","resultDate":"2024-04-04 04:08:24 pm","durationMillis":4237.1534,"passedCount":4}