{"failedCount":0,"prefixedPath":"src\/test\/java\/feature\/getApi.feature","packageQualifiedName":"src.test.java.feature.getApi","loopIndex":-1,"relativePath":"src\/test\/java\/feature\/getApi.feature","scenarioResults":[{"sectionIndex":0,"stepResults":[{"result":{"nanos":166586400,"millis":166.5864,"status":"passed"},"step":{"line":5,"prefix":"Given","index":0,"text":"url 'https:\/\/reqres.in\/api\/users\/'"}},{"result":{"nanos":1833600,"millis":1.8336,"status":"passed"},"step":{"line":6,"prefix":"And","index":1,"text":"header Content-Type = 'application\/json'"}},{"result":{"nanos":755806400,"millis":755.8064,"status":"passed"},"step":{"line":7,"prefix":"And","index":2,"text":"configure ssl = true"}},{"result":{"nanos":181374300,"millis":181.3743,"status":"passed"},"step":{"endLine":37,"line":8,"prefix":"And","docString":"{\n      \n      \n      \n          \"name\": \"harshada\",\n      \n      \n      \n          \"job\": \"testernew\"\n      \n      \n      \n      }","index":3,"text":"request"}},{"result":{"nanos":1353996600,"millis":1353.9966,"status":"passed"},"step":{"line":38,"prefix":"When","index":4,"text":"method POST"},"stepLog":"15:58:18.469 request:\n1 > POST https:\/\/reqres.in\/api\/users\/\n1 > Content-Type: application\/json; charset=UTF-8\n1 > Content-Length: 37\n1 > Host: reqres.in\n1 > Connection: Keep-Alive\n1 > User-Agent: Apache-HttpClient\/4.5.12 (Java\/17.0.6)\n1 > Accept-Encoding: gzip,deflate\n{\"name\":\"harshada\",\"job\":\"testernew\"}\n\n15:58:19.451 response time in milliseconds: 964\n1 < 201\n1 < Date: Thu, 04 Apr 2024 10:28:18 GMT\n1 < Content-Type: application\/json; charset=utf-8\n1 < Content-Length: 87\n1 < Connection: keep-alive\n1 < Report-To: {\"group\":\"heroku-nel\",\"max_age\":3600,\"endpoints\":[{\"url\":\"https:\/\/nel.heroku.com\/reports?ts=1712226498&sid=c4c9725f-1ab0-44d8-820f-430df2718e11&s=hIgHjO2cpDoiBby7WejZk2GGa5dXEqYEBv43Z6TQdu4%3D\"}]}\n1 < Reporting-Endpoints: heroku-nel=https:\/\/nel.heroku.com\/reports?ts=1712226498&sid=c4c9725f-1ab0-44d8-820f-430df2718e11&s=hIgHjO2cpDoiBby7WejZk2GGa5dXEqYEBv43Z6TQdu4%3D\n1 < Nel: {\"report_to\":\"heroku-nel\",\"max_age\":3600,\"success_fraction\":0.005,\"failure_fraction\":0.05,\"response_headers\":[\"Via\"]}\n1 < X-Powered-By: Express\n1 < Access-Control-Allow-Origin: *\n1 < Etag: W\/\"57-RAFIn303ENq\/d2vIuug7IA2f5Ck\"\n1 < Via: 1.1 vegur\n1 < CF-Cache-Status: DYNAMIC\n1 < Server: cloudflare\n1 < CF-RAY: 86f09c600b9ef30b-BOM\n{\"name\":\"harshada\",\"job\":\"testernew\",\"id\":\"539\",\"createdAt\":\"2024-04-04T10:28:18.872Z\"}\n\n"},{"result":{"nanos":54400,"millis":0.0544,"status":"passed"},"step":{"line":39,"prefix":"Then","index":5,"text":"status 201"}},{"result":{"nanos":91964100,"millis":91.9641,"status":"passed"},"step":{"line":40,"prefix":"And","index":6,"text":"match response == { id :'#notnull', name:'harshada',job:'testernew',createdAt:'#notnull'}"}},{"result":{"nanos":42456800,"millis":42.4568,"status":"passed"},"step":{"line":41,"prefix":"Given","index":7,"text":"path response.id"}},{"result":{"nanos":101738500,"millis":101.7385,"status":"passed"},"step":{"line":42,"prefix":"And","index":8,"text":"print response"},"stepLog":"15:58:19.702 [print] {\n  \"name\": \"harshada\",\n  \"job\": \"testernew\",\n  \"id\": \"539\",\n  \"createdAt\": \"2024-04-04T10:28:18.872Z\"\n}\n \n"}],"executorName":"main","line":4,"name":"create and retrieve a user name","description":"","durationMillis":2695.8111,"startTime":1712226496973,"failed":false,"refId":"[1:4]","endTime":1712226499704,"exampleIndex":-1},{"sectionIndex":1,"stepResults":[{"result":{"nanos":1068900,"millis":1.0689,"status":"passed"},"step":{"line":46,"prefix":"Given","index":0,"text":"url 'https:\/\/reqres.in\/api\/users\/'"}},{"result":{"nanos":838100,"millis":0.8381,"status":"passed"},"step":{"line":47,"prefix":"And","index":1,"text":"header Content-Type = 'application\/json'"}},{"result":{"nanos":2855400,"millis":2.8554,"status":"passed"},"step":{"line":48,"prefix":"And","index":2,"text":"configure ssl = true"}},{"result":{"nanos":705000,"millis":0.705,"status":"passed"},"step":{"endLine":78,"line":49,"prefix":"And","docString":"{\n      \n      \n      \n          \"name\": \"George\",\n      \n      \n      \n          \"job\": \"Bluth\"\n      \n      \n      \n      }","index":3,"text":"request"}},{"result":{"nanos":532216000,"millis":532.216,"status":"passed"},"step":{"line":79,"prefix":"When","index":4,"text":"method GET"},"stepLog":"15:58:19.732 request:\n1 > GET https:\/\/reqres.in\/api\/users\/\n1 > Content-Type: application\/json; charset=UTF-8\n1 > Content-Length: 31\n1 > Host: reqres.in\n1 > Connection: Keep-Alive\n1 > User-Agent: Apache-HttpClient\/4.5.12 (Java\/17.0.6)\n1 > Accept-Encoding: gzip,deflate\n{\"name\":\"George\",\"job\":\"Bluth\"}\n\n15:58:20.252 response time in milliseconds: 516\n1 < 200\n1 < Date: Thu, 04 Apr 2024 10:28:19 GMT\n1 < Content-Type: application\/json; charset=utf-8\n1 < Transfer-Encoding: chunked\n1 < Connection: keep-alive\n1 < Report-To: {\"group\":\"heroku-nel\",\"max_age\":3600,\"endpoints\":[{\"url\":\"https:\/\/nel.heroku.com\/reports?ts=1711968508&sid=c4c9725f-1ab0-44d8-820f-430df2718e11&s=VhqmzA1dO7coJM9qU546BXt19ZN3s6IsK9ZEu%2BzzjN8%3D\"}]}\n1 < Reporting-Endpoints: heroku-nel=https:\/\/nel.heroku.com\/reports?ts=1711968508&sid=c4c9725f-1ab0-44d8-820f-430df2718e11&s=VhqmzA1dO7coJM9qU546BXt19ZN3s6IsK9ZEu%2BzzjN8%3D\n1 < Nel: {\"report_to\":\"heroku-nel\",\"max_age\":3600,\"success_fraction\":0.005,\"failure_fraction\":0.05,\"response_headers\":[\"Via\"]}\n1 < X-Powered-By: Express\n1 < Access-Control-Allow-Origin: *\n1 < Etag: W\/\"3e4-2RLXvr5wTg9YQ6aH95CkYoFNuO8\"\n1 < Via: 1.1 vegur\n1 < Cache-Control: max-age=14400\n1 < CF-Cache-Status: REVALIDATED\n1 < Vary: Accept-Encoding\n1 < Server: cloudflare\n1 < CF-RAY: 86f09c654c1148d4-BOM\n{\"page\":1,\"per_page\":6,\"total\":12,\"total_pages\":2,\"data\":[{\"id\":1,\"email\":\"george.bluth@reqres.in\",\"first_name\":\"George\",\"last_name\":\"Bluth\",\"avatar\":\"https:\/\/reqres.in\/img\/faces\/1-image.jpg\"},{\"id\":2,\"email\":\"janet.weaver@reqres.in\",\"first_name\":\"Janet\",\"last_name\":\"Weaver\",\"avatar\":\"https:\/\/reqres.in\/img\/faces\/2-image.jpg\"},{\"id\":3,\"email\":\"emma.wong@reqres.in\",\"first_name\":\"Emma\",\"last_name\":\"Wong\",\"avatar\":\"https:\/\/reqres.in\/img\/faces\/3-image.jpg\"},{\"id\":4,\"email\":\"eve.holt@reqres.in\",\"first_name\":\"Eve\",\"last_name\":\"Holt\",\"avatar\":\"https:\/\/reqres.in\/img\/faces\/4-image.jpg\"},{\"id\":5,\"email\":\"charles.morris@reqres.in\",\"first_name\":\"Charles\",\"last_name\":\"Morris\",\"avatar\":\"https:\/\/reqres.in\/img\/faces\/5-image.jpg\"},{\"id\":6,\"email\":\"tracey.ramos@reqres.in\",\"first_name\":\"Tracey\",\"last_name\":\"Ramos\",\"avatar\":\"https:\/\/reqres.in\/img\/faces\/6-image.jpg\"}],\"support\":{\"url\":\"https:\/\/reqres.in\/#support-heading\",\"text\":\"To keep ReqRes free, contributions towards server costs are appreciated!\"}}\n\n"},{"result":{"nanos":26300,"millis":0.0263,"status":"passed"},"step":{"line":80,"prefix":"Then","index":5,"text":"status 200"}},{"result":{"nanos":15082300,"millis":15.0823,"status":"passed"},"step":{"comments":["# And match response contains { id :1, name:'George',job:'Bluth',createdAt:'#notnull'}"],"line":82,"prefix":"Given","index":6,"text":"path response.id"}},{"result":{"nanos":5988400,"millis":5.9884,"status":"passed"},"step":{"line":83,"prefix":"And","index":7,"text":"print response"},"stepLog":"15:58:20.281 [print] {\n  \"page\": 1,\n  \"per_page\": 6,\n  \"total\": 12,\n  \"total_pages\": 2,\n  \"data\": [\n    {\n      \"id\": 1,\n      \"email\": \"george.bluth@reqres.in\",\n      \"first_name\": \"George\",\n      \"last_name\": \"Bluth\",\n      \"avatar\": \"https:\/\/reqres.in\/img\/faces\/1-image.jpg\"\n    },\n    {\n      \"id\": 2,\n      \"email\": \"janet.weaver@reqres.in\",\n      \"first_name\": \"Janet\",\n      \"last_name\": \"Weaver\",\n      \"avatar\": \"https:\/\/reqres.in\/img\/faces\/2-image.jpg\"\n    },\n    {\n      \"id\": 3,\n      \"email\": \"emma.wong@reqres.in\",\n      \"first_name\": \"Emma\",\n      \"last_name\": \"Wong\",\n      \"avatar\": \"https:\/\/reqres.in\/img\/faces\/3-image.jpg\"\n    },\n    {\n      \"id\": 4,\n      \"email\": \"eve.holt@reqres.in\",\n      \"first_name\": \"Eve\",\n      \"last_name\": \"Holt\",\n      \"avatar\": \"https:\/\/reqres.in\/img\/faces\/4-image.jpg\"\n    },\n    {\n      \"id\": 5,\n      \"email\": \"charles.morris@reqres.in\",\n      \"first_name\": \"Charles\",\n      \"last_name\": \"Morris\",\n      \"avatar\": \"https:\/\/reqres.in\/img\/faces\/5-image.jpg\"\n    },\n    {\n      \"id\": 6,\n      \"email\": \"tracey.ramos@reqres.in\",\n      \"first_name\": \"Tracey\",\n      \"last_name\": \"Ramos\",\n      \"avatar\": \"https:\/\/reqres.in\/img\/faces\/6-image.jpg\"\n    }\n  ],\n  \"support\": {\n    \"url\": \"https:\/\/reqres.in\/#support-heading\",\n    \"text\": \"To keep ReqRes free, contributions towards server costs are appreciated!\"\n  }\n}\n \n"}],"executorName":"main","line":45,"name":"get and retrieve a user name","description":"","durationMillis":558.7804,"startTime":1712226499722,"failed":false,"refId":"[2:45]","endTime":1712226500282,"exampleIndex":-1},{"sectionIndex":2,"stepResults":[{"result":{"nanos":456100,"millis":0.4561,"status":"passed"},"step":{"line":87,"prefix":"Given","index":0,"text":"url 'https:\/\/reqres.in\/api\/users\/'"}},{"result":{"nanos":359100,"millis":0.3591,"status":"passed"},"step":{"line":88,"prefix":"And","index":1,"text":"header Content-Type = 'application\/json'"}},{"result":{"nanos":3201300,"millis":3.2013,"status":"passed"},"step":{"line":89,"prefix":"And","index":2,"text":"configure ssl = true"}},{"result":{"nanos":877100,"millis":0.8771,"status":"passed"},"step":{"endLine":119,"line":90,"prefix":"And","docString":"{\n      \n      \n      \n          \"name\": \"George\",\n      \n      \n      \n          \"job\": \"Bluth\"\n      \n      \n      \n      }","index":3,"text":"request"}},{"result":{"nanos":539044300,"millis":539.0443,"status":"passed"},"step":{"line":120,"prefix":"When","index":4,"text":"method PUT"},"stepLog":"15:58:20.316 request:\n1 > PUT https:\/\/reqres.in\/api\/users\/\n1 > Content-Type: application\/json; charset=UTF-8\n1 > Content-Length: 31\n1 > Host: reqres.in\n1 > Connection: Keep-Alive\n1 > User-Agent: Apache-HttpClient\/4.5.12 (Java\/17.0.6)\n1 > Accept-Encoding: gzip,deflate\n{\"name\":\"George\",\"job\":\"Bluth\"}\n\n15:58:20.836 response time in milliseconds: 512\n1 < 200\n1 < Date: Thu, 04 Apr 2024 10:28:20 GMT\n1 < Content-Type: application\/json; charset=utf-8\n1 < Transfer-Encoding: chunked\n1 < Connection: keep-alive\n1 < Report-To: {\"group\":\"heroku-nel\",\"max_age\":3600,\"endpoints\":[{\"url\":\"https:\/\/nel.heroku.com\/reports?ts=1712226500&sid=c4c9725f-1ab0-44d8-820f-430df2718e11&s=T5z%2Br3mD2wKKODfOud%2BK%2FkE2m6Kr1JAMGpwjeJdDAKk%3D\"}]}\n1 < Reporting-Endpoints: heroku-nel=https:\/\/nel.heroku.com\/reports?ts=1712226500&sid=c4c9725f-1ab0-44d8-820f-430df2718e11&s=T5z%2Br3mD2wKKODfOud%2BK%2FkE2m6Kr1JAMGpwjeJdDAKk%3D\n1 < Nel: {\"report_to\":\"heroku-nel\",\"max_age\":3600,\"success_fraction\":0.005,\"failure_fraction\":0.05,\"response_headers\":[\"Via\"]}\n1 < X-Powered-By: Express\n1 < Access-Control-Allow-Origin: *\n1 < Etag: W\/\"46-uHDYkynLkm8Ywthwp73frIOvwuc\"\n1 < Via: 1.1 vegur\n1 < CF-Cache-Status: DYNAMIC\n1 < Vary: Accept-Encoding\n1 < Server: cloudflare\n1 < CF-RAY: 86f09c68d8508501-BOM\n{\"name\":\"George\",\"job\":\"Bluth\",\"updatedAt\":\"2024-04-04T10:28:20.296Z\"}\n\n"},{"result":{"nanos":48500,"millis":0.0485,"status":"passed"},"step":{"line":121,"prefix":"Then","index":5,"text":"status 200"}},{"result":{"nanos":1642900,"millis":1.6429,"status":"passed"},"step":{"comments":["# And match response contains { id :1, name:'George',job:'Bluth',createdAt:'#notnull'}"],"line":123,"prefix":"Given","index":6,"text":"path response.id"}},{"result":{"nanos":1856600,"millis":1.8566,"status":"passed"},"step":{"line":124,"prefix":"And","index":7,"text":"print response"},"stepLog":"15:58:20.853 [print] {\n  \"name\": \"George\",\n  \"job\": \"Bluth\",\n  \"updatedAt\": \"2024-04-04T10:28:20.296Z\"\n}\n \n"}],"executorName":"main","line":86,"name":"put and retrieve a user name","description":"","durationMillis":547.4859,"startTime":1712226500302,"failed":false,"refId":"[3:86]","endTime":1712226500853,"exampleIndex":-1},{"sectionIndex":3,"stepResults":[{"result":{"nanos":717600,"millis":0.7176,"status":"passed"},"step":{"line":127,"prefix":"Given","index":0,"text":"url 'https:\/\/reqres.in\/api\/users\/'"}},{"result":{"nanos":379100,"millis":0.3791,"status":"passed"},"step":{"line":128,"prefix":"And","index":1,"text":"header Content-Type = 'application\/json'"}},{"result":{"nanos":1850100,"millis":1.8501,"status":"passed"},"step":{"line":129,"prefix":"And","index":2,"text":"configure ssl = true"}},{"result":{"nanos":680000,"millis":0.68,"status":"passed"},"step":{"endLine":159,"line":130,"prefix":"And","docString":"{\n      \n      \n      \n          \"name\": \"George\",\n      \n      \n      \n          \"job\": \"Bluth\"\n      \n      \n      \n      }","index":3,"text":"request"}},{"result":{"nanos":512024200,"millis":512.0242,"status":"passed"},"step":{"line":160,"prefix":"When","index":4,"text":"method PATCH"},"stepLog":"15:58:20.876 request:\n1 > PATCH https:\/\/reqres.in\/api\/users\/\n1 > Content-Type: application\/json; charset=UTF-8\n1 > Content-Length: 31\n1 > Host: reqres.in\n1 > Connection: Keep-Alive\n1 > User-Agent: Apache-HttpClient\/4.5.12 (Java\/17.0.6)\n1 > Accept-Encoding: gzip,deflate\n{\"name\":\"George\",\"job\":\"Bluth\"}\n\n15:58:21.376 response time in milliseconds: 493\n1 < 200\n1 < Date: Thu, 04 Apr 2024 10:28:20 GMT\n1 < Content-Type: application\/json; charset=utf-8\n1 < Transfer-Encoding: chunked\n1 < Connection: keep-alive\n1 < Report-To: {\"group\":\"heroku-nel\",\"max_age\":3600,\"endpoints\":[{\"url\":\"https:\/\/nel.heroku.com\/reports?ts=1712226500&sid=c4c9725f-1ab0-44d8-820f-430df2718e11&s=T5z%2Br3mD2wKKODfOud%2BK%2FkE2m6Kr1JAMGpwjeJdDAKk%3D\"}]}\n1 < Reporting-Endpoints: heroku-nel=https:\/\/nel.heroku.com\/reports?ts=1712226500&sid=c4c9725f-1ab0-44d8-820f-430df2718e11&s=T5z%2Br3mD2wKKODfOud%2BK%2FkE2m6Kr1JAMGpwjeJdDAKk%3D\n1 < Nel: {\"report_to\":\"heroku-nel\",\"max_age\":3600,\"success_fraction\":0.005,\"failure_fraction\":0.05,\"response_headers\":[\"Via\"]}\n1 < X-Powered-By: Express\n1 < Access-Control-Allow-Origin: *\n1 < Etag: W\/\"46-Cj9lO28QwfzYmoPbKFLTAMwFfkw\"\n1 < Via: 1.1 vegur\n1 < CF-Cache-Status: DYNAMIC\n1 < Server: cloudflare\n1 < CF-RAY: 86f09c6c5c1031f3-BOM\n{\"name\":\"George\",\"job\":\"Bluth\",\"updatedAt\":\"2024-04-04T10:28:20.844Z\"}\n\n"},{"result":{"nanos":49800,"millis":0.0498,"status":"passed"},"step":{"line":161,"prefix":"Then","index":5,"text":"status 200"}},{"result":{"nanos":1411200,"millis":1.4112,"status":"passed"},"step":{"comments":["# And match response contains { id :1, name:'George',job:'Bluth',createdAt:'#notnull'}"],"line":163,"prefix":"Given","index":6,"text":"path response.id"}},{"result":{"nanos":3631300,"millis":3.6313,"status":"passed"},"step":{"line":164,"prefix":"And","index":7,"text":"print response"},"stepLog":"15:58:21.391 [print] {\n  \"name\": \"George\",\n  \"job\": \"Bluth\",\n  \"updatedAt\": \"2024-04-04T10:28:20.844Z\"\n}\n \n"}],"executorName":"main","line":126,"name":"Patch and retrieve a user name","description":"","durationMillis":520.7433,"startTime":1712226500869,"failed":false,"refId":"[4:126]","endTime":1712226501391,"exampleIndex":-1},{"sectionIndex":4,"stepResults":[{"result":{"nanos":2014900,"millis":2.0149,"status":"passed"},"step":{"line":167,"prefix":"Given","index":0,"text":"url 'https:\/\/reqres.in\/api\/users\/'"}},{"result":{"nanos":669600,"millis":0.6696,"status":"passed"},"step":{"line":168,"prefix":"And","index":1,"text":"header Content-Type = 'application\/json'"}},{"result":{"nanos":3998100,"millis":3.9981,"status":"passed"},"step":{"line":169,"prefix":"And","index":2,"text":"configure ssl = true"}},{"result":{"nanos":5700500,"millis":5.7005,"status":"passed"},"step":{"endLine":199,"line":170,"prefix":"And","docString":"{\n      \n      \n      \n          \"name\": \"George\",\n      \n      \n      \n          \"job\": \"Bluth\"\n      \n      \n      \n      }","index":3,"text":"request"}},{"result":{"nanos":524221600,"millis":524.2216,"status":"passed"},"step":{"line":200,"prefix":"When","index":4,"text":"method Delete"},"stepLog":"15:58:21.433 request:\n1 > DELETE https:\/\/reqres.in\/api\/users\/\n1 > Content-Type: application\/json; charset=UTF-8\n1 > Content-Length: 31\n1 > Host: reqres.in\n1 > Connection: Keep-Alive\n1 > User-Agent: Apache-HttpClient\/4.5.12 (Java\/17.0.6)\n1 > Accept-Encoding: gzip,deflate\n{\"name\":\"George\",\"job\":\"Bluth\"}\n\n15:58:21.947 response time in milliseconds: 509\n1 < 204\n1 < Date: Thu, 04 Apr 2024 10:28:21 GMT\n1 < Content-Length: 0\n1 < Connection: keep-alive\n1 < Report-To: {\"group\":\"heroku-nel\",\"max_age\":3600,\"endpoints\":[{\"url\":\"https:\/\/nel.heroku.com\/reports?ts=1712226501&sid=c4c9725f-1ab0-44d8-820f-430df2718e11&s=st7LL%2FtlHXC%2FfJM06CH3u8mTXiyhy8IWzZYiBhahutA%3D\"}]}\n1 < Reporting-Endpoints: heroku-nel=https:\/\/nel.heroku.com\/reports?ts=1712226501&sid=c4c9725f-1ab0-44d8-820f-430df2718e11&s=st7LL%2FtlHXC%2FfJM06CH3u8mTXiyhy8IWzZYiBhahutA%3D\n1 < Nel: {\"report_to\":\"heroku-nel\",\"max_age\":3600,\"success_fraction\":0.005,\"failure_fraction\":0.05,\"response_headers\":[\"Via\"]}\n1 < X-Powered-By: Express\n1 < Access-Control-Allow-Origin: *\n1 < Etag: W\/\"2-vyGp6PvFo4RvsFtPoIWeCReyIC8\"\n1 < Via: 1.1 vegur\n1 < CF-Cache-Status: DYNAMIC\n1 < Server: cloudflare\n1 < CF-RAY: 86f09c6fee3084c2-BOM\n\n\n"},{"result":{"nanos":47400,"millis":0.0474,"status":"passed"},"step":{"line":201,"prefix":"Then","index":5,"text":"status 204"}},{"result":{"nanos":4027300,"millis":4.0273,"status":"passed"},"step":{"comments":["# And match response contains { id :1, name:'George',job:'Bluth',createdAt:'#notnull'}"],"line":203,"prefix":"Given","index":6,"text":"path response.id"}},{"result":{"nanos":1569100,"millis":1.5691,"status":"passed"},"step":{"line":204,"prefix":"And","index":7,"text":"print response"},"stepLog":"15:58:21.959 [print]  \n"}],"executorName":"main","line":166,"name":"Delete and retrieve a user name","description":"","durationMillis":542.2485,"startTime":1712226501415,"failed":false,"refId":"[5:166]","endTime":1712226501960,"exampleIndex":-1}],"callDepth":0,"name":"karate example","description":"","resultDate":"2024-04-04 03:58:21 pm","durationMillis":4865.0692,"passedCount":5}