{"failedCount":0,"prefixedPath":"src\/test\/java\/feature\/getApi.feature","packageQualifiedName":"src.test.java.feature.getApi","loopIndex":-1,"relativePath":"src\/test\/java\/feature\/getApi.feature","scenarioResults":[{"sectionIndex":0,"stepResults":[{"result":{"nanos":142950500,"millis":142.9505,"status":"passed"},"step":{"line":5,"prefix":"Given","index":0,"text":"url 'https:\/\/reqres.in\/api\/users\/'"}},{"result":{"nanos":1206100,"millis":1.2061,"status":"passed"},"step":{"line":6,"prefix":"And","index":1,"text":"header Content-Type = 'application\/json'"}},{"result":{"nanos":457633600,"millis":457.6336,"status":"passed"},"step":{"line":7,"prefix":"And","index":2,"text":"configure ssl = true"}},{"result":{"nanos":104898200,"millis":104.8982,"status":"passed"},"step":{"endLine":37,"line":8,"prefix":"And","docString":"{\n      \n      \n      \n          \"name\": \"sima\",\n      \n      \n      \n          \"job\": \"tester\"\n      \n      \n      \n      }","index":3,"text":"request"}},{"result":{"nanos":1222724700,"millis":1222.7247,"status":"passed"},"step":{"line":38,"prefix":"When","index":4,"text":"method POST"},"stepLog":"12:49:04.301 request:\n1 > POST https:\/\/reqres.in\/api\/users\/\n1 > Content-Type: application\/json; charset=UTF-8\n1 > Content-Length: 30\n1 > Host: reqres.in\n1 > Connection: Keep-Alive\n1 > User-Agent: Apache-HttpClient\/4.5.12 (Java\/17.0.6)\n1 > Accept-Encoding: gzip,deflate\n{\"name\":\"sima\",\"job\":\"tester\"}\n\n12:49:05.136 response time in milliseconds: 824\n1 < 201\n1 < Date: Fri, 05 Apr 2024 07:19:05 GMT\n1 < Content-Type: application\/json; charset=utf-8\n1 < Content-Length: 80\n1 < Connection: keep-alive\n1 < Report-To: {\"group\":\"heroku-nel\",\"max_age\":3600,\"endpoints\":[{\"url\":\"https:\/\/nel.heroku.com\/reports?ts=1712301545&sid=c4c9725f-1ab0-44d8-820f-430df2718e11&s=yGFEGO7buaTwMv%2FJ7q2EA4vl9U17vJIlEO6qAWD73h0%3D\"}]}\n1 < Reporting-Endpoints: heroku-nel=https:\/\/nel.heroku.com\/reports?ts=1712301545&sid=c4c9725f-1ab0-44d8-820f-430df2718e11&s=yGFEGO7buaTwMv%2FJ7q2EA4vl9U17vJIlEO6qAWD73h0%3D\n1 < Nel: {\"report_to\":\"heroku-nel\",\"max_age\":3600,\"success_fraction\":0.005,\"failure_fraction\":0.05,\"response_headers\":[\"Via\"]}\n1 < X-Powered-By: Express\n1 < Access-Control-Allow-Origin: *\n1 < Etag: W\/\"50-vUyHQU6pJhc87WvGLPjXIrPR8eM\"\n1 < Via: 1.1 vegur\n1 < CF-Cache-Status: DYNAMIC\n1 < Server: cloudflare\n1 < CF-RAY: 86f7c493f9e03c82-BOM\n{\"name\":\"sima\",\"job\":\"tester\",\"id\":\"525\",\"createdAt\":\"2024-04-05T07:19:05.792Z\"}\n\n"},{"result":{"nanos":84200,"millis":0.0842,"status":"passed"},"step":{"line":39,"prefix":"Then","index":5,"text":"status 201"}},{"result":{"nanos":83111800,"millis":83.1118,"status":"passed"},"step":{"line":40,"prefix":"And","index":6,"text":"match response == { id :'#notnull', name:'sima',job:'tester',createdAt:'#notnull'}"}},{"result":{"nanos":34170900,"millis":34.1709,"status":"passed"},"step":{"line":41,"prefix":"Given","index":7,"text":"path response.id"}},{"result":{"nanos":95428900,"millis":95.4289,"status":"passed"},"step":{"line":42,"prefix":"And","index":8,"text":"print response"},"stepLog":"12:49:05.355 [print] {\n  \"name\": \"sima\",\n  \"job\": \"tester\",\n  \"id\": \"525\",\n  \"createdAt\": \"2024-04-05T07:19:05.792Z\"\n}\n \n"}],"executorName":"main","line":4,"name":"create and retrieve a user name","description":"","durationMillis":2142.2089,"startTime":1712301543182,"failed":false,"refId":"[1:4]","endTime":1712301545357,"exampleIndex":-1},{"sectionIndex":1,"stepResults":[{"result":{"nanos":1069200,"millis":1.0692,"status":"passed"},"step":{"line":46,"prefix":"Given","index":0,"text":"url 'https:\/\/reqres.in\/api\/users\/'"}},{"result":{"nanos":763100,"millis":0.7631,"status":"passed"},"step":{"line":47,"prefix":"And","index":1,"text":"header Content-Type = 'application\/json'"}},{"result":{"nanos":2158900,"millis":2.1589,"status":"passed"},"step":{"line":48,"prefix":"And","index":2,"text":"configure ssl = true"}},{"result":{"nanos":784800,"millis":0.7848,"status":"passed"},"step":{"endLine":78,"line":49,"prefix":"And","docString":"{\n      \n      \n      \n          \"name\": \"George\",\n      \n      \n      \n          \"job\": \"Bluth\"\n      \n      \n      \n      }","index":3,"text":"request"}},{"result":{"nanos":442050000,"millis":442.05,"status":"passed"},"step":{"line":79,"prefix":"When","index":4,"text":"method GET"},"stepLog":"12:49:05.385 request:\n1 > GET https:\/\/reqres.in\/api\/users\/\n1 > Content-Type: application\/json; charset=UTF-8\n1 > Content-Length: 31\n1 > Host: reqres.in\n1 > Connection: Keep-Alive\n1 > User-Agent: Apache-HttpClient\/4.5.12 (Java\/17.0.6)\n1 > Accept-Encoding: gzip,deflate\n{\"name\":\"George\",\"job\":\"Bluth\"}\n\n12:49:05.816 response time in milliseconds: 423\n1 < 200\n1 < Date: Fri, 05 Apr 2024 07:19:06 GMT\n1 < Content-Type: application\/json; charset=utf-8\n1 < Transfer-Encoding: chunked\n1 < Connection: keep-alive\n1 < Report-To: {\"group\":\"heroku-nel\",\"max_age\":3600,\"endpoints\":[{\"url\":\"https:\/\/nel.heroku.com\/reports?ts=1711968508&sid=c4c9725f-1ab0-44d8-820f-430df2718e11&s=VhqmzA1dO7coJM9qU546BXt19ZN3s6IsK9ZEu%2BzzjN8%3D\"}]}\n1 < Reporting-Endpoints: heroku-nel=https:\/\/nel.heroku.com\/reports?ts=1711968508&sid=c4c9725f-1ab0-44d8-820f-430df2718e11&s=VhqmzA1dO7coJM9qU546BXt19ZN3s6IsK9ZEu%2BzzjN8%3D\n1 < Nel: {\"report_to\":\"heroku-nel\",\"max_age\":3600,\"success_fraction\":0.005,\"failure_fraction\":0.05,\"response_headers\":[\"Via\"]}\n1 < X-Powered-By: Express\n1 < Access-Control-Allow-Origin: *\n1 < Etag: W\/\"3e4-2RLXvr5wTg9YQ6aH95CkYoFNuO8\"\n1 < Via: 1.1 vegur\n1 < Cache-Control: max-age=14400\n1 < CF-Cache-Status: REVALIDATED\n1 < Vary: Accept-Encoding\n1 < Server: cloudflare\n1 < CF-RAY: 86f7c4985c16470d-BOM\n{\"page\":1,\"per_page\":6,\"total\":12,\"total_pages\":2,\"data\":[{\"id\":1,\"email\":\"george.bluth@reqres.in\",\"first_name\":\"George\",\"last_name\":\"Bluth\",\"avatar\":\"https:\/\/reqres.in\/img\/faces\/1-image.jpg\"},{\"id\":2,\"email\":\"janet.weaver@reqres.in\",\"first_name\":\"Janet\",\"last_name\":\"Weaver\",\"avatar\":\"https:\/\/reqres.in\/img\/faces\/2-image.jpg\"},{\"id\":3,\"email\":\"emma.wong@reqres.in\",\"first_name\":\"Emma\",\"last_name\":\"Wong\",\"avatar\":\"https:\/\/reqres.in\/img\/faces\/3-image.jpg\"},{\"id\":4,\"email\":\"eve.holt@reqres.in\",\"first_name\":\"Eve\",\"last_name\":\"Holt\",\"avatar\":\"https:\/\/reqres.in\/img\/faces\/4-image.jpg\"},{\"id\":5,\"email\":\"charles.morris@reqres.in\",\"first_name\":\"Charles\",\"last_name\":\"Morris\",\"avatar\":\"https:\/\/reqres.in\/img\/faces\/5-image.jpg\"},{\"id\":6,\"email\":\"tracey.ramos@reqres.in\",\"first_name\":\"Tracey\",\"last_name\":\"Ramos\",\"avatar\":\"https:\/\/reqres.in\/img\/faces\/6-image.jpg\"}],\"support\":{\"url\":\"https:\/\/reqres.in\/#support-heading\",\"text\":\"To keep ReqRes free, contributions towards server costs are appreciated!\"}}\n\n"},{"result":{"nanos":27200,"millis":0.0272,"status":"passed"},"step":{"line":80,"prefix":"Then","index":5,"text":"status 200"}},{"result":{"nanos":12839000,"millis":12.839,"status":"passed"},"step":{"comments":["# And match response contains { id :1, name:'George',job:'Bluth',createdAt:'#notnull'}"],"line":82,"prefix":"Given","index":6,"text":"path response.id"}},{"result":{"nanos":5707000,"millis":5.707,"status":"passed"},"step":{"line":83,"prefix":"And","index":7,"text":"print response"},"stepLog":"12:49:05.840 [print] {\n  \"page\": 1,\n  \"per_page\": 6,\n  \"total\": 12,\n  \"total_pages\": 2,\n  \"data\": [\n    {\n      \"id\": 1,\n      \"email\": \"george.bluth@reqres.in\",\n      \"first_name\": \"George\",\n      \"last_name\": \"Bluth\",\n      \"avatar\": \"https:\/\/reqres.in\/img\/faces\/1-image.jpg\"\n    },\n    {\n      \"id\": 2,\n      \"email\": \"janet.weaver@reqres.in\",\n      \"first_name\": \"Janet\",\n      \"last_name\": \"Weaver\",\n      \"avatar\": \"https:\/\/reqres.in\/img\/faces\/2-image.jpg\"\n    },\n    {\n      \"id\": 3,\n      \"email\": \"emma.wong@reqres.in\",\n      \"first_name\": \"Emma\",\n      \"last_name\": \"Wong\",\n      \"avatar\": \"https:\/\/reqres.in\/img\/faces\/3-image.jpg\"\n    },\n    {\n      \"id\": 4,\n      \"email\": \"eve.holt@reqres.in\",\n      \"first_name\": \"Eve\",\n      \"last_name\": \"Holt\",\n      \"avatar\": \"https:\/\/reqres.in\/img\/faces\/4-image.jpg\"\n    },\n    {\n      \"id\": 5,\n      \"email\": \"charles.morris@reqres.in\",\n      \"first_name\": \"Charles\",\n      \"last_name\": \"Morris\",\n      \"avatar\": \"https:\/\/reqres.in\/img\/faces\/5-image.jpg\"\n    },\n    {\n      \"id\": 6,\n      \"email\": \"tracey.ramos@reqres.in\",\n      \"first_name\": \"Tracey\",\n      \"last_name\": \"Ramos\",\n      \"avatar\": \"https:\/\/reqres.in\/img\/faces\/6-image.jpg\"\n    }\n  ],\n  \"support\": {\n    \"url\": \"https:\/\/reqres.in\/#support-heading\",\n    \"text\": \"To keep ReqRes free, contributions towards server costs are appreciated!\"\n  }\n}\n \n"}],"executorName":"main","line":45,"name":"get and retrieve a user name","description":"","durationMillis":465.3992,"startTime":1712301545374,"failed":false,"refId":"[2:45]","endTime":1712301545840,"exampleIndex":-1},{"sectionIndex":2,"stepResults":[{"result":{"nanos":447900,"millis":0.4479,"status":"passed"},"step":{"line":87,"prefix":"Given","index":0,"text":"url 'https:\/\/reqres.in\/api\/users\/'"}},{"result":{"nanos":338900,"millis":0.3389,"status":"passed"},"step":{"line":88,"prefix":"And","index":1,"text":"header Content-Type = 'application\/json'"}},{"result":{"nanos":2363300,"millis":2.3633,"status":"passed"},"step":{"line":89,"prefix":"And","index":2,"text":"configure ssl = true"}},{"result":{"nanos":1187800,"millis":1.1878,"status":"passed"},"step":{"endLine":119,"line":90,"prefix":"And","docString":"{\n      \n      \n      \n          \"name\": \"George\",\n      \n      \n      \n          \"job\": \"Bluth\"\n      \n      \n      \n      }","index":3,"text":"request"}},{"result":{"nanos":498186700,"millis":498.1867,"status":"passed"},"step":{"line":120,"prefix":"When","index":4,"text":"method PUT"},"stepLog":"12:49:05.873 request:\n1 > PUT https:\/\/reqres.in\/api\/users\/\n1 > Content-Type: application\/json; charset=UTF-8\n1 > Content-Length: 31\n1 > Host: reqres.in\n1 > Connection: Keep-Alive\n1 > User-Agent: Apache-HttpClient\/4.5.12 (Java\/17.0.6)\n1 > Accept-Encoding: gzip,deflate\n{\"name\":\"George\",\"job\":\"Bluth\"}\n\n12:49:06.359 response time in milliseconds: 482\n1 < 200\n1 < Date: Fri, 05 Apr 2024 07:19:07 GMT\n1 < Content-Type: application\/json; charset=utf-8\n1 < Transfer-Encoding: chunked\n1 < Connection: keep-alive\n1 < Report-To: {\"group\":\"heroku-nel\",\"max_age\":3600,\"endpoints\":[{\"url\":\"https:\/\/nel.heroku.com\/reports?ts=1712301547&sid=c4c9725f-1ab0-44d8-820f-430df2718e11&s=6dYYVYSu%2FfDGf%2Bf5%2FX14hwprVVUMbiDaUIzpiyYbZFc%3D\"}]}\n1 < Reporting-Endpoints: heroku-nel=https:\/\/nel.heroku.com\/reports?ts=1712301547&sid=c4c9725f-1ab0-44d8-820f-430df2718e11&s=6dYYVYSu%2FfDGf%2Bf5%2FX14hwprVVUMbiDaUIzpiyYbZFc%3D\n1 < Nel: {\"report_to\":\"heroku-nel\",\"max_age\":3600,\"success_fraction\":0.005,\"failure_fraction\":0.05,\"response_headers\":[\"Via\"]}\n1 < X-Powered-By: Express\n1 < Access-Control-Allow-Origin: *\n1 < Etag: W\/\"46-fl36+jNIJ3xFRyVllXjYphsCqg0\"\n1 < Via: 1.1 vegur\n1 < CF-Cache-Status: DYNAMIC\n1 < Vary: Accept-Encoding\n1 < Server: cloudflare\n1 < CF-RAY: 86f7c49b693159d5-DEL\n{\"name\":\"George\",\"job\":\"Bluth\",\"updatedAt\":\"2024-04-05T07:19:07.025Z\"}\n\n"},{"result":{"nanos":25700,"millis":0.0257,"status":"passed"},"step":{"line":121,"prefix":"Then","index":5,"text":"status 200"}},{"result":{"nanos":1775100,"millis":1.7751,"status":"passed"},"step":{"comments":["# And match response contains { id :1, name:'George',job:'Bluth',createdAt:'#notnull'}"],"line":123,"prefix":"Given","index":6,"text":"path response.id"}},{"result":{"nanos":1271300,"millis":1.2713,"status":"passed"},"step":{"line":124,"prefix":"And","index":7,"text":"print response"},"stepLog":"12:49:06.365 [print] {\n  \"name\": \"George\",\n  \"job\": \"Bluth\",\n  \"updatedAt\": \"2024-04-05T07:19:07.025Z\"\n}\n \n"}],"executorName":"main","line":86,"name":"put and retrieve a user name","description":"","durationMillis":505.5967,"startTime":1712301545857,"failed":false,"refId":"[3:86]","endTime":1712301546365,"exampleIndex":-1},{"sectionIndex":3,"stepResults":[{"result":{"nanos":1577400,"millis":1.5774,"status":"passed"},"step":{"line":127,"prefix":"Given","index":0,"text":"url 'https:\/\/reqres.in\/api\/users\/'"}},{"result":{"nanos":916000,"millis":0.916,"status":"passed"},"step":{"line":128,"prefix":"And","index":1,"text":"header Content-Type = 'application\/json'"}},{"result":{"nanos":2097100,"millis":2.0971,"status":"passed"},"step":{"line":129,"prefix":"And","index":2,"text":"configure ssl = true"}},{"result":{"nanos":603000,"millis":0.603,"status":"passed"},"step":{"endLine":159,"line":130,"prefix":"And","docString":"{\n      \n      \n      \n          \"name\": \"George\",\n      \n      \n      \n          \"job\": \"Bluth\"\n      \n      \n      \n      }","index":3,"text":"request"}},{"result":{"nanos":519239800,"millis":519.2398,"status":"passed"},"step":{"line":160,"prefix":"When","index":4,"text":"method PATCH"},"stepLog":"12:49:06.389 request:\n1 > PATCH https:\/\/reqres.in\/api\/users\/\n1 > Content-Type: application\/json; charset=UTF-8\n1 > Content-Length: 31\n1 > Host: reqres.in\n1 > Connection: Keep-Alive\n1 > User-Agent: Apache-HttpClient\/4.5.12 (Java\/17.0.6)\n1 > Accept-Encoding: gzip,deflate\n{\"name\":\"George\",\"job\":\"Bluth\"}\n\n12:49:06.898 response time in milliseconds: 503\n1 < 200\n1 < Date: Fri, 05 Apr 2024 07:19:07 GMT\n1 < Content-Type: application\/json; charset=utf-8\n1 < Transfer-Encoding: chunked\n1 < Connection: keep-alive\n1 < Report-To: {\"group\":\"heroku-nel\",\"max_age\":3600,\"endpoints\":[{\"url\":\"https:\/\/nel.heroku.com\/reports?ts=1712301547&sid=c4c9725f-1ab0-44d8-820f-430df2718e11&s=6dYYVYSu%2FfDGf%2Bf5%2FX14hwprVVUMbiDaUIzpiyYbZFc%3D\"}]}\n1 < Reporting-Endpoints: heroku-nel=https:\/\/nel.heroku.com\/reports?ts=1712301547&sid=c4c9725f-1ab0-44d8-820f-430df2718e11&s=6dYYVYSu%2FfDGf%2Bf5%2FX14hwprVVUMbiDaUIzpiyYbZFc%3D\n1 < Nel: {\"report_to\":\"heroku-nel\",\"max_age\":3600,\"success_fraction\":0.005,\"failure_fraction\":0.05,\"response_headers\":[\"Via\"]}\n1 < X-Powered-By: Express\n1 < Access-Control-Allow-Origin: *\n1 < Etag: W\/\"46-bgv06dl6DkPLXLblWjzdpa8nzH4\"\n1 < Via: 1.1 vegur\n1 < CF-Cache-Status: DYNAMIC\n1 < Server: cloudflare\n1 < CF-RAY: 86f7c49ebe8f5958-DEL\n{\"name\":\"George\",\"job\":\"Bluth\",\"updatedAt\":\"2024-04-05T07:19:07.581Z\"}\n\n"},{"result":{"nanos":50800,"millis":0.0508,"status":"passed"},"step":{"line":161,"prefix":"Then","index":5,"text":"status 200"}},{"result":{"nanos":1047700,"millis":1.0477,"status":"passed"},"step":{"comments":["# And match response contains { id :1, name:'George',job:'Bluth',createdAt:'#notnull'}"],"line":163,"prefix":"Given","index":6,"text":"path response.id"}},{"result":{"nanos":2569300,"millis":2.5693,"status":"passed"},"step":{"line":164,"prefix":"And","index":7,"text":"print response"},"stepLog":"12:49:06.908 [print] {\n  \"name\": \"George\",\n  \"job\": \"Bluth\",\n  \"updatedAt\": \"2024-04-05T07:19:07.581Z\"\n}\n \n"}],"executorName":"main","line":126,"name":"Patch and retrieve a user name","description":"","durationMillis":528.1011,"startTime":1712301546378,"failed":false,"refId":"[4:126]","endTime":1712301546909,"exampleIndex":-1},{"sectionIndex":4,"stepResults":[{"result":{"nanos":470900,"millis":0.4709,"status":"passed"},"step":{"line":167,"prefix":"Given","index":0,"text":"url 'https:\/\/reqres.in\/api\/users\/'"}},{"result":{"nanos":446800,"millis":0.4468,"status":"passed"},"step":{"line":168,"prefix":"And","index":1,"text":"header Content-Type = 'application\/json'"}},{"result":{"nanos":2721100,"millis":2.7211,"status":"passed"},"step":{"line":169,"prefix":"And","index":2,"text":"configure ssl = true"}},{"result":{"nanos":601400,"millis":0.6014,"status":"passed"},"step":{"endLine":199,"line":170,"prefix":"And","docString":"{\n      \n      \n      \n          \"name\": \"George\",\n      \n      \n      \n          \"job\": \"Bluth\"\n      \n      \n      \n      }","index":3,"text":"request"}},{"result":{"nanos":518017800,"millis":518.0178,"status":"passed"},"step":{"line":200,"prefix":"When","index":4,"text":"method Delete"},"stepLog":"12:49:06.940 request:\n1 > DELETE https:\/\/reqres.in\/api\/users\/\n1 > Content-Type: application\/json; charset=UTF-8\n1 > Content-Length: 31\n1 > Host: reqres.in\n1 > Connection: Keep-Alive\n1 > User-Agent: Apache-HttpClient\/4.5.12 (Java\/17.0.6)\n1 > Accept-Encoding: gzip,deflate\n{\"name\":\"George\",\"job\":\"Bluth\"}\n\n12:49:07.447 response time in milliseconds: 502\n1 < 204\n1 < Date: Fri, 05 Apr 2024 07:19:08 GMT\n1 < Content-Length: 0\n1 < Connection: keep-alive\n1 < Report-To: {\"group\":\"heroku-nel\",\"max_age\":3600,\"endpoints\":[{\"url\":\"https:\/\/nel.heroku.com\/reports?ts=1712301548&sid=c4c9725f-1ab0-44d8-820f-430df2718e11&s=R8JTJAH7%2BdqMlczfVYu75qf3U%2BlAOE11DlG3JcgE6Wg%3D\"}]}\n1 < Reporting-Endpoints: heroku-nel=https:\/\/nel.heroku.com\/reports?ts=1712301548&sid=c4c9725f-1ab0-44d8-820f-430df2718e11&s=R8JTJAH7%2BdqMlczfVYu75qf3U%2BlAOE11DlG3JcgE6Wg%3D\n1 < Nel: {\"report_to\":\"heroku-nel\",\"max_age\":3600,\"success_fraction\":0.005,\"failure_fraction\":0.05,\"response_headers\":[\"Via\"]}\n1 < X-Powered-By: Express\n1 < Access-Control-Allow-Origin: *\n1 < Etag: W\/\"2-vyGp6PvFo4RvsFtPoIWeCReyIC8\"\n1 < Via: 1.1 vegur\n1 < CF-Cache-Status: DYNAMIC\n1 < Server: cloudflare\n1 < CF-RAY: 86f7c4a22cec59a6-DEL\n\n\n"},{"result":{"nanos":45500,"millis":0.0455,"status":"passed"},"step":{"line":201,"prefix":"Then","index":5,"text":"status 204"}},{"result":{"nanos":3710000,"millis":3.71,"status":"passed"},"step":{"comments":["# And match response contains { id :1, name:'George',job:'Bluth',createdAt:'#notnull'}"],"line":203,"prefix":"Given","index":6,"text":"path response.id"}},{"result":{"nanos":1710400,"millis":1.7104,"status":"passed"},"step":{"line":204,"prefix":"And","index":7,"text":"print response"},"stepLog":"12:49:07.458 [print]  \n"}],"executorName":"main","line":166,"name":"Delete and retrieve a user name","description":"","durationMillis":527.7239,"startTime":1712301546928,"failed":false,"refId":"[5:166]","endTime":1712301547458,"exampleIndex":-1}],"callDepth":0,"name":"karate example","description":"","resultDate":"2024-04-05 12:49:07 pm","durationMillis":4169.0298,"passedCount":5}