{"failedCount":0,"prefixedPath":"src\/test\/java\/feature\/getApi.feature","packageQualifiedName":"src.test.java.feature.getApi","loopIndex":-1,"relativePath":"src\/test\/java\/feature\/getApi.feature","scenarioResults":[{"sectionIndex":0,"stepResults":[{"result":{"nanos":152029900,"millis":152.0299,"status":"passed"},"step":{"line":5,"prefix":"Given","index":0,"text":"url 'https:\/\/reqres.in\/api\/users\/'"}},{"result":{"nanos":1343600,"millis":1.3436,"status":"passed"},"step":{"line":6,"prefix":"And","index":1,"text":"header Content-Type = 'application\/json'"}},{"result":{"nanos":469861200,"millis":469.8612,"status":"passed"},"step":{"line":7,"prefix":"And","index":2,"text":"configure ssl = true"}},{"result":{"nanos":115649900,"millis":115.6499,"status":"passed"},"step":{"endLine":37,"line":8,"prefix":"And","docString":"{\n      \n      \n      \n          \"name\": \"sima\",\n      \n      \n      \n          \"job\": \"tester\"\n      \n      \n      \n      }","index":3,"text":"request"}},{"result":{"nanos":1105069300,"millis":1105.0693,"status":"passed"},"step":{"line":38,"prefix":"When","index":4,"text":"method POST"},"stepLog":"16:27:06.182 request:\n1 > POST https:\/\/reqres.in\/api\/users\/\n1 > Content-Type: application\/json; charset=UTF-8\n1 > Content-Length: 30\n1 > Host: reqres.in\n1 > Connection: Keep-Alive\n1 > User-Agent: Apache-HttpClient\/4.5.12 (Java\/17.0.6)\n1 > Accept-Encoding: gzip,deflate\n{\"name\":\"sima\",\"job\":\"tester\"}\n\n16:27:06.994 response time in milliseconds: 798\n1 < 201\n1 < Date: Thu, 04 Apr 2024 10:57:06 GMT\n1 < Content-Type: application\/json; charset=utf-8\n1 < Content-Length: 80\n1 < Connection: keep-alive\n1 < Report-To: {\"group\":\"heroku-nel\",\"max_age\":3600,\"endpoints\":[{\"url\":\"https:\/\/nel.heroku.com\/reports?ts=1712228226&sid=c4c9725f-1ab0-44d8-820f-430df2718e11&s=c1is0I3SgOii4inKcKWBJvmNoDiXfH7yNfeRXOVhyQs%3D\"}]}\n1 < Reporting-Endpoints: heroku-nel=https:\/\/nel.heroku.com\/reports?ts=1712228226&sid=c4c9725f-1ab0-44d8-820f-430df2718e11&s=c1is0I3SgOii4inKcKWBJvmNoDiXfH7yNfeRXOVhyQs%3D\n1 < Nel: {\"report_to\":\"heroku-nel\",\"max_age\":3600,\"success_fraction\":0.005,\"failure_fraction\":0.05,\"response_headers\":[\"Via\"]}\n1 < X-Powered-By: Express\n1 < Access-Control-Allow-Origin: *\n1 < Etag: W\/\"50-tbH7zti\/Ocr+tz48\/A7Ck0\/QHQ0\"\n1 < Via: 1.1 vegur\n1 < CF-Cache-Status: DYNAMIC\n1 < Server: cloudflare\n1 < CF-RAY: 86f0c68d6ef54832-BOM\n{\"name\":\"sima\",\"job\":\"tester\",\"id\":\"360\",\"createdAt\":\"2024-04-04T10:57:06.444Z\"}\n\n"},{"result":{"nanos":54900,"millis":0.0549,"status":"passed"},"step":{"line":39,"prefix":"Then","index":5,"text":"status 201"}},{"result":{"nanos":82134200,"millis":82.1342,"status":"passed"},"step":{"line":40,"prefix":"And","index":6,"text":"match response == { id :'#notnull', name:'sima',job:'tester',createdAt:'#notnull'}"}},{"result":{"nanos":36836100,"millis":36.8361,"status":"passed"},"step":{"line":41,"prefix":"Given","index":7,"text":"path response.id"}},{"result":{"nanos":101925100,"millis":101.9251,"status":"passed"},"step":{"line":42,"prefix":"And","index":8,"text":"print response"},"stepLog":"16:27:07.227 [print] {\n  \"name\": \"sima\",\n  \"job\": \"tester\",\n  \"id\": \"360\",\n  \"createdAt\": \"2024-04-04T10:57:06.444Z\"\n}\n \n"}],"executorName":"main","line":4,"name":"create and retrieve a user name","description":"","durationMillis":2064.9042,"startTime":1712228225129,"failed":false,"refId":"[1:4]","endTime":1712228227229,"exampleIndex":-1},{"sectionIndex":1,"stepResults":[{"result":{"nanos":1059000,"millis":1.059,"status":"passed"},"step":{"line":46,"prefix":"Given","index":0,"text":"url 'https:\/\/reqres.in\/api\/users\/'"}},{"result":{"nanos":907500,"millis":0.9075,"status":"passed"},"step":{"line":47,"prefix":"And","index":1,"text":"header Content-Type = 'application\/json'"}},{"result":{"nanos":3339200,"millis":3.3392,"status":"passed"},"step":{"line":48,"prefix":"And","index":2,"text":"configure ssl = true"}},{"result":{"nanos":2417600,"millis":2.4176,"status":"passed"},"step":{"endLine":78,"line":49,"prefix":"And","docString":"{\n      \n      \n      \n          \"name\": \"George\",\n      \n      \n      \n          \"job\": \"Bluth\"\n      \n      \n      \n      }","index":3,"text":"request"}},{"result":{"nanos":521317100,"millis":521.3171,"status":"passed"},"step":{"line":79,"prefix":"When","index":4,"text":"method GET"},"stepLog":"16:27:07.267 request:\n1 > GET https:\/\/reqres.in\/api\/users\/\n1 > Content-Type: application\/json; charset=UTF-8\n1 > Content-Length: 31\n1 > Host: reqres.in\n1 > Connection: Keep-Alive\n1 > User-Agent: Apache-HttpClient\/4.5.12 (Java\/17.0.6)\n1 > Accept-Encoding: gzip,deflate\n{\"name\":\"George\",\"job\":\"Bluth\"}\n\n16:27:07.772 response time in milliseconds: 501\n1 < 200\n1 < Date: Thu, 04 Apr 2024 10:57:07 GMT\n1 < Content-Type: application\/json; charset=utf-8\n1 < Transfer-Encoding: chunked\n1 < Connection: keep-alive\n1 < Report-To: {\"group\":\"heroku-nel\",\"max_age\":3600,\"endpoints\":[{\"url\":\"https:\/\/nel.heroku.com\/reports?ts=1712228227&sid=c4c9725f-1ab0-44d8-820f-430df2718e11&s=HhAcoF71KTskXsY1DUY9MTKJzDMYk0fQnek3nZ3iSzM%3D\"}]}\n1 < Reporting-Endpoints: heroku-nel=https:\/\/nel.heroku.com\/reports?ts=1712228227&sid=c4c9725f-1ab0-44d8-820f-430df2718e11&s=HhAcoF71KTskXsY1DUY9MTKJzDMYk0fQnek3nZ3iSzM%3D\n1 < Nel: {\"report_to\":\"heroku-nel\",\"max_age\":3600,\"success_fraction\":0.005,\"failure_fraction\":0.05,\"response_headers\":[\"Via\"]}\n1 < X-Powered-By: Express\n1 < Access-Control-Allow-Origin: *\n1 < Etag: W\/\"3e4-2RLXvr5wTg9YQ6aH95CkYoFNuO8\"\n1 < Via: 1.1 vegur\n1 < Cache-Control: max-age=14400\n1 < CF-Cache-Status: MISS\n1 < Vary: Accept-Encoding\n1 < Server: cloudflare\n1 < CF-RAY: 86f0c6927ccf31a5-BOM\n{\"page\":1,\"per_page\":6,\"total\":12,\"total_pages\":2,\"data\":[{\"id\":1,\"email\":\"george.bluth@reqres.in\",\"first_name\":\"George\",\"last_name\":\"Bluth\",\"avatar\":\"https:\/\/reqres.in\/img\/faces\/1-image.jpg\"},{\"id\":2,\"email\":\"janet.weaver@reqres.in\",\"first_name\":\"Janet\",\"last_name\":\"Weaver\",\"avatar\":\"https:\/\/reqres.in\/img\/faces\/2-image.jpg\"},{\"id\":3,\"email\":\"emma.wong@reqres.in\",\"first_name\":\"Emma\",\"last_name\":\"Wong\",\"avatar\":\"https:\/\/reqres.in\/img\/faces\/3-image.jpg\"},{\"id\":4,\"email\":\"eve.holt@reqres.in\",\"first_name\":\"Eve\",\"last_name\":\"Holt\",\"avatar\":\"https:\/\/reqres.in\/img\/faces\/4-image.jpg\"},{\"id\":5,\"email\":\"charles.morris@reqres.in\",\"first_name\":\"Charles\",\"last_name\":\"Morris\",\"avatar\":\"https:\/\/reqres.in\/img\/faces\/5-image.jpg\"},{\"id\":6,\"email\":\"tracey.ramos@reqres.in\",\"first_name\":\"Tracey\",\"last_name\":\"Ramos\",\"avatar\":\"https:\/\/reqres.in\/img\/faces\/6-image.jpg\"}],\"support\":{\"url\":\"https:\/\/reqres.in\/#support-heading\",\"text\":\"To keep ReqRes free, contributions towards server costs are appreciated!\"}}\n\n"},{"result":{"nanos":27600,"millis":0.0276,"status":"passed"},"step":{"line":80,"prefix":"Then","index":5,"text":"status 200"}},{"result":{"nanos":10928200,"millis":10.9282,"status":"passed"},"step":{"comments":["# And match response contains { id :1, name:'George',job:'Bluth',createdAt:'#notnull'}"],"line":82,"prefix":"Given","index":6,"text":"path response.id"}},{"result":{"nanos":2611000,"millis":2.611,"status":"passed"},"step":{"line":83,"prefix":"And","index":7,"text":"print response"},"stepLog":"16:27:07.789 [print] {\n  \"page\": 1,\n  \"per_page\": 6,\n  \"total\": 12,\n  \"total_pages\": 2,\n  \"data\": [\n    {\n      \"id\": 1,\n      \"email\": \"george.bluth@reqres.in\",\n      \"first_name\": \"George\",\n      \"last_name\": \"Bluth\",\n      \"avatar\": \"https:\/\/reqres.in\/img\/faces\/1-image.jpg\"\n    },\n    {\n      \"id\": 2,\n      \"email\": \"janet.weaver@reqres.in\",\n      \"first_name\": \"Janet\",\n      \"last_name\": \"Weaver\",\n      \"avatar\": \"https:\/\/reqres.in\/img\/faces\/2-image.jpg\"\n    },\n    {\n      \"id\": 3,\n      \"email\": \"emma.wong@reqres.in\",\n      \"first_name\": \"Emma\",\n      \"last_name\": \"Wong\",\n      \"avatar\": \"https:\/\/reqres.in\/img\/faces\/3-image.jpg\"\n    },\n    {\n      \"id\": 4,\n      \"email\": \"eve.holt@reqres.in\",\n      \"first_name\": \"Eve\",\n      \"last_name\": \"Holt\",\n      \"avatar\": \"https:\/\/reqres.in\/img\/faces\/4-image.jpg\"\n    },\n    {\n      \"id\": 5,\n      \"email\": \"charles.morris@reqres.in\",\n      \"first_name\": \"Charles\",\n      \"last_name\": \"Morris\",\n      \"avatar\": \"https:\/\/reqres.in\/img\/faces\/5-image.jpg\"\n    },\n    {\n      \"id\": 6,\n      \"email\": \"tracey.ramos@reqres.in\",\n      \"first_name\": \"Tracey\",\n      \"last_name\": \"Ramos\",\n      \"avatar\": \"https:\/\/reqres.in\/img\/faces\/6-image.jpg\"\n    }\n  ],\n  \"support\": {\n    \"url\": \"https:\/\/reqres.in\/#support-heading\",\n    \"text\": \"To keep ReqRes free, contributions towards server costs are appreciated!\"\n  }\n}\n \n"}],"executorName":"main","line":45,"name":"get and retrieve a user name","description":"","durationMillis":542.6072,"startTime":1712228227246,"failed":false,"refId":"[2:45]","endTime":1712228227790,"exampleIndex":-1},{"sectionIndex":2,"stepResults":[{"result":{"nanos":513400,"millis":0.5134,"status":"passed"},"step":{"line":87,"prefix":"Given","index":0,"text":"url 'https:\/\/reqres.in\/api\/users\/'"}},{"result":{"nanos":388800,"millis":0.3888,"status":"passed"},"step":{"line":88,"prefix":"And","index":1,"text":"header Content-Type = 'application\/json'"}},{"result":{"nanos":3421500,"millis":3.4215,"status":"passed"},"step":{"line":89,"prefix":"And","index":2,"text":"configure ssl = true"}},{"result":{"nanos":947800,"millis":0.9478,"status":"passed"},"step":{"endLine":119,"line":90,"prefix":"And","docString":"{\n      \n      \n      \n          \"name\": \"George\",\n      \n      \n      \n          \"job\": \"Bluth\"\n      \n      \n      \n      }","index":3,"text":"request"}},{"result":{"nanos":523613700,"millis":523.6137,"status":"passed"},"step":{"line":120,"prefix":"When","index":4,"text":"method PUT"},"stepLog":"16:27:07.816 request:\n1 > PUT https:\/\/reqres.in\/api\/users\/\n1 > Content-Type: application\/json; charset=UTF-8\n1 > Content-Length: 31\n1 > Host: reqres.in\n1 > Connection: Keep-Alive\n1 > User-Agent: Apache-HttpClient\/4.5.12 (Java\/17.0.6)\n1 > Accept-Encoding: gzip,deflate\n{\"name\":\"George\",\"job\":\"Bluth\"}\n\n16:27:08.331 response time in milliseconds: 508\n1 < 200\n1 < Date: Thu, 04 Apr 2024 10:57:07 GMT\n1 < Content-Type: application\/json; charset=utf-8\n1 < Transfer-Encoding: chunked\n1 < Connection: keep-alive\n1 < Report-To: {\"group\":\"heroku-nel\",\"max_age\":3600,\"endpoints\":[{\"url\":\"https:\/\/nel.heroku.com\/reports?ts=1712228227&sid=c4c9725f-1ab0-44d8-820f-430df2718e11&s=HhAcoF71KTskXsY1DUY9MTKJzDMYk0fQnek3nZ3iSzM%3D\"}]}\n1 < Reporting-Endpoints: heroku-nel=https:\/\/nel.heroku.com\/reports?ts=1712228227&sid=c4c9725f-1ab0-44d8-820f-430df2718e11&s=HhAcoF71KTskXsY1DUY9MTKJzDMYk0fQnek3nZ3iSzM%3D\n1 < Nel: {\"report_to\":\"heroku-nel\",\"max_age\":3600,\"success_fraction\":0.005,\"failure_fraction\":0.05,\"response_headers\":[\"Via\"]}\n1 < X-Powered-By: Express\n1 < Access-Control-Allow-Origin: *\n1 < Etag: W\/\"46-7iDflpopNkcY1JLd3B\/\/rgE5Fdg\"\n1 < Via: 1.1 vegur\n1 < CF-Cache-Status: DYNAMIC\n1 < Vary: Accept-Encoding\n1 < Server: cloudflare\n1 < CF-RAY: 86f0c695ee0ef4c6-BOM\n{\"name\":\"George\",\"job\":\"Bluth\",\"updatedAt\":\"2024-04-04T10:57:07.812Z\"}\n\n"},{"result":{"nanos":40200,"millis":0.0402,"status":"passed"},"step":{"line":121,"prefix":"Then","index":5,"text":"status 200"}},{"result":{"nanos":948300,"millis":0.9483,"status":"passed"},"step":{"comments":["# And match response contains { id :1, name:'George',job:'Bluth',createdAt:'#notnull'}"],"line":123,"prefix":"Given","index":6,"text":"path response.id"}},{"result":{"nanos":1631100,"millis":1.6311,"status":"passed"},"step":{"line":124,"prefix":"And","index":7,"text":"print response"},"stepLog":"16:27:08.339 [print] {\n  \"name\": \"George\",\n  \"job\": \"Bluth\",\n  \"updatedAt\": \"2024-04-04T10:57:07.812Z\"\n}\n \n"}],"executorName":"main","line":86,"name":"put and retrieve a user name","description":"","durationMillis":531.5048,"startTime":1712228227805,"failed":false,"refId":"[3:86]","endTime":1712228228339,"exampleIndex":-1},{"sectionIndex":3,"stepResults":[{"result":{"nanos":637800,"millis":0.6378,"status":"passed"},"step":{"line":127,"prefix":"Given","index":0,"text":"url 'https:\/\/reqres.in\/api\/users\/'"}},{"result":{"nanos":527000,"millis":0.527,"status":"passed"},"step":{"line":128,"prefix":"And","index":1,"text":"header Content-Type = 'application\/json'"}},{"result":{"nanos":2394500,"millis":2.3945,"status":"passed"},"step":{"line":129,"prefix":"And","index":2,"text":"configure ssl = true"}},{"result":{"nanos":794600,"millis":0.7946,"status":"passed"},"step":{"endLine":159,"line":130,"prefix":"And","docString":"{\n      \n      \n      \n          \"name\": \"George\",\n      \n      \n      \n          \"job\": \"Bluth\"\n      \n      \n      \n      }","index":3,"text":"request"}},{"result":{"nanos":533828800,"millis":533.8288,"status":"passed"},"step":{"line":160,"prefix":"When","index":4,"text":"method PATCH"},"stepLog":"16:27:08.381 request:\n1 > PATCH https:\/\/reqres.in\/api\/users\/\n1 > Content-Type: application\/json; charset=UTF-8\n1 > Content-Length: 31\n1 > Host: reqres.in\n1 > Connection: Keep-Alive\n1 > User-Agent: Apache-HttpClient\/4.5.12 (Java\/17.0.6)\n1 > Accept-Encoding: gzip,deflate\n{\"name\":\"George\",\"job\":\"Bluth\"}\n\n16:27:08.907 response time in milliseconds: 520\n1 < 200\n1 < Date: Thu, 04 Apr 2024 10:57:08 GMT\n1 < Content-Type: application\/json; charset=utf-8\n1 < Transfer-Encoding: chunked\n1 < Connection: keep-alive\n1 < Report-To: {\"group\":\"heroku-nel\",\"max_age\":3600,\"endpoints\":[{\"url\":\"https:\/\/nel.heroku.com\/reports?ts=1712228228&sid=c4c9725f-1ab0-44d8-820f-430df2718e11&s=OnCtT2uMLDBJXZiAF6mYCEJe8BRsrsjjOYrKhMMIpdQ%3D\"}]}\n1 < Reporting-Endpoints: heroku-nel=https:\/\/nel.heroku.com\/reports?ts=1712228228&sid=c4c9725f-1ab0-44d8-820f-430df2718e11&s=OnCtT2uMLDBJXZiAF6mYCEJe8BRsrsjjOYrKhMMIpdQ%3D\n1 < Nel: {\"report_to\":\"heroku-nel\",\"max_age\":3600,\"success_fraction\":0.005,\"failure_fraction\":0.05,\"response_headers\":[\"Via\"]}\n1 < X-Powered-By: Express\n1 < Access-Control-Allow-Origin: *\n1 < Etag: W\/\"46-qCdbm48RDtD++huEEez8RXAAEi8\"\n1 < Via: 1.1 vegur\n1 < CF-Cache-Status: DYNAMIC\n1 < Server: cloudflare\n1 < CF-RAY: 86f0c6997f72f3bd-BOM\n{\"name\":\"George\",\"job\":\"Bluth\",\"updatedAt\":\"2024-04-04T10:57:08.387Z\"}\n\n"},{"result":{"nanos":39700,"millis":0.0397,"status":"passed"},"step":{"line":161,"prefix":"Then","index":5,"text":"status 200"}},{"result":{"nanos":667200,"millis":0.6672,"status":"passed"},"step":{"comments":["# And match response contains { id :1, name:'George',job:'Bluth',createdAt:'#notnull'}"],"line":163,"prefix":"Given","index":6,"text":"path response.id"}},{"result":{"nanos":3141700,"millis":3.1417,"status":"passed"},"step":{"line":164,"prefix":"And","index":7,"text":"print response"},"stepLog":"16:27:08.915 [print] {\n  \"name\": \"George\",\n  \"job\": \"Bluth\",\n  \"updatedAt\": \"2024-04-04T10:57:08.387Z\"\n}\n \n"}],"executorName":"main","line":126,"name":"Patch and retrieve a user name","description":"","durationMillis":542.0313,"startTime":1712228228372,"failed":false,"refId":"[4:126]","endTime":1712228228916,"exampleIndex":-1},{"sectionIndex":4,"stepResults":[{"result":{"nanos":1011600,"millis":1.0116,"status":"passed"},"step":{"line":167,"prefix":"Given","index":0,"text":"url 'https:\/\/reqres.in\/api\/users\/'"}},{"result":{"nanos":938300,"millis":0.9383,"status":"passed"},"step":{"line":168,"prefix":"And","index":1,"text":"header Content-Type = 'application\/json'"}},{"result":{"nanos":2802300,"millis":2.8023,"status":"passed"},"step":{"line":169,"prefix":"And","index":2,"text":"configure ssl = true"}},{"result":{"nanos":708900,"millis":0.7089,"status":"passed"},"step":{"endLine":199,"line":170,"prefix":"And","docString":"{\n      \n      \n      \n          \"name\": \"George\",\n      \n      \n      \n          \"job\": \"Bluth\"\n      \n      \n      \n      }","index":3,"text":"request"}},{"result":{"nanos":493162600,"millis":493.1626,"status":"passed"},"step":{"line":200,"prefix":"When","index":4,"text":"method Delete"},"stepLog":"16:27:08.953 request:\n1 > DELETE https:\/\/reqres.in\/api\/users\/\n1 > Content-Type: application\/json; charset=UTF-8\n1 > Content-Length: 31\n1 > Host: reqres.in\n1 > Connection: Keep-Alive\n1 > User-Agent: Apache-HttpClient\/4.5.12 (Java\/17.0.6)\n1 > Accept-Encoding: gzip,deflate\n{\"name\":\"George\",\"job\":\"Bluth\"}\n\n16:27:09.436 response time in milliseconds: 480\n1 < 204\n1 < Date: Thu, 04 Apr 2024 10:57:09 GMT\n1 < Content-Length: 0\n1 < Connection: keep-alive\n1 < Report-To: {\"group\":\"heroku-nel\",\"max_age\":3600,\"endpoints\":[{\"url\":\"https:\/\/nel.heroku.com\/reports?ts=1712228228&sid=c4c9725f-1ab0-44d8-820f-430df2718e11&s=OnCtT2uMLDBJXZiAF6mYCEJe8BRsrsjjOYrKhMMIpdQ%3D\"}]}\n1 < Reporting-Endpoints: heroku-nel=https:\/\/nel.heroku.com\/reports?ts=1712228228&sid=c4c9725f-1ab0-44d8-820f-430df2718e11&s=OnCtT2uMLDBJXZiAF6mYCEJe8BRsrsjjOYrKhMMIpdQ%3D\n1 < Nel: {\"report_to\":\"heroku-nel\",\"max_age\":3600,\"success_fraction\":0.005,\"failure_fraction\":0.05,\"response_headers\":[\"Via\"]}\n1 < X-Powered-By: Express\n1 < Access-Control-Allow-Origin: *\n1 < Etag: W\/\"2-vyGp6PvFo4RvsFtPoIWeCReyIC8\"\n1 < Via: 1.1 vegur\n1 < CF-Cache-Status: DYNAMIC\n1 < Server: cloudflare\n1 < CF-RAY: 86f0c69ceca129f5-BOM\n\n\n"},{"result":{"nanos":27300,"millis":0.0273,"status":"passed"},"step":{"line":201,"prefix":"Then","index":5,"text":"status 204"}},{"result":{"nanos":2138600,"millis":2.1386,"status":"passed"},"step":{"comments":["# And match response contains { id :1, name:'George',job:'Bluth',createdAt:'#notnull'}"],"line":203,"prefix":"Given","index":6,"text":"path response.id"}},{"result":{"nanos":982700,"millis":0.9827,"status":"passed"},"step":{"line":204,"prefix":"And","index":7,"text":"print response"},"stepLog":"16:27:09.442 [print]  \n"}],"executorName":"main","line":166,"name":"Delete and retrieve a user name","description":"","durationMillis":501.7723,"startTime":1712228228939,"failed":false,"refId":"[5:166]","endTime":1712228229442,"exampleIndex":-1}],"callDepth":0,"name":"karate example","description":"","resultDate":"2024-04-04 04:27:09 pm","durationMillis":4182.8198,"passedCount":5}