{"failedCount":1,"prefixedPath":"src\/test\/java\/feature\/getApi.feature","packageQualifiedName":"src.test.java.feature.getApi","loopIndex":-1,"relativePath":"src\/test\/java\/feature\/getApi.feature","scenarioResults":[{"sectionIndex":0,"stepResults":[{"result":{"nanos":171815000,"millis":171.815,"status":"passed"},"step":{"line":5,"prefix":"Given","index":0,"text":"url 'https:\/\/reqres.in\/api\/users\/'"}},{"result":{"nanos":1464900,"millis":1.4649,"status":"passed"},"step":{"line":6,"prefix":"And","index":1,"text":"header Content-Type = 'application\/json'"}},{"result":{"nanos":483437900,"millis":483.4379,"status":"passed"},"step":{"line":7,"prefix":"And","index":2,"text":"configure ssl = true"}},{"result":{"nanos":103406200,"millis":103.4062,"status":"passed"},"step":{"endLine":37,"line":8,"prefix":"And","docString":"{\n      \n      \n      \n          \"name\": \"sima\",\n      \n      \n      \n          \"job\": \"tester\"\n      \n      \n      \n      }","index":3,"text":"request"}},{"result":{"nanos":1478144300,"millis":1478.1443,"status":"passed"},"step":{"line":38,"prefix":"When","index":4,"text":"method POST"},"stepLog":"16:24:39.191 request:\n1 > POST https:\/\/reqres.in\/api\/users\/\n1 > Content-Type: application\/json; charset=UTF-8\n1 > Content-Length: 30\n1 > Host: reqres.in\n1 > Connection: Keep-Alive\n1 > User-Agent: Apache-HttpClient\/4.5.12 (Java\/17.0.6)\n1 > Accept-Encoding: gzip,deflate\n{\"name\":\"sima\",\"job\":\"tester\"}\n\n16:24:40.281 response time in milliseconds: 1076\n1 < 201\n1 < Date: Thu, 04 Apr 2024 10:54:39 GMT\n1 < Content-Type: application\/json; charset=utf-8\n1 < Content-Length: 80\n1 < Connection: keep-alive\n1 < Report-To: {\"group\":\"heroku-nel\",\"max_age\":3600,\"endpoints\":[{\"url\":\"https:\/\/nel.heroku.com\/reports?ts=1712228079&sid=c4c9725f-1ab0-44d8-820f-430df2718e11&s=jU%2FtqBNNk95sV3stps3PWQsDX6KzZqXSovu9K5UZna4%3D\"}]}\n1 < Reporting-Endpoints: heroku-nel=https:\/\/nel.heroku.com\/reports?ts=1712228079&sid=c4c9725f-1ab0-44d8-820f-430df2718e11&s=jU%2FtqBNNk95sV3stps3PWQsDX6KzZqXSovu9K5UZna4%3D\n1 < Nel: {\"report_to\":\"heroku-nel\",\"max_age\":3600,\"success_fraction\":0.005,\"failure_fraction\":0.05,\"response_headers\":[\"Via\"]}\n1 < X-Powered-By: Express\n1 < Access-Control-Allow-Origin: *\n1 < Etag: W\/\"50-eJvao6A6aZT+N8BpkRGQKL3Moj8\"\n1 < Via: 1.1 vegur\n1 < CF-Cache-Status: DYNAMIC\n1 < Server: cloudflare\n1 < CF-RAY: 86f0c2f71ea141a4-BOM\n{\"name\":\"sima\",\"job\":\"tester\",\"id\":\"152\",\"createdAt\":\"2024-04-04T10:54:39.752Z\"}\n\n"},{"result":{"nanos":43600,"millis":0.0436,"status":"passed"},"step":{"line":39,"prefix":"Then","index":5,"text":"status 201"}},{"result":{"nanos":128013900,"errorMessage":"match failed: EQUALS\n  $ | not equal | match failed for name: 'name' (MAP:MAP)\n  {\"name\":\"sima\",\"job\":\"tester\",\"id\":\"152\",\"createdAt\":\"2024-04-04T10:54:39.752Z\"}\n  {\"name\":\"harshada\",\"job\":\"testernew\",\"id\":\"#notnull\",\"createdAt\":\"#notnull\"}\n\n    $.name | not equal (STRING:STRING)\n    'sima'\n    'harshada'\n\nsrc\/test\/java\/feature\/getApi.feature:40","millis":128.0139,"status":"failed"},"step":{"line":40,"prefix":"And","index":6,"text":"match response == { id :'#notnull', name:'harshada',job:'testernew',createdAt:'#notnull'}"},"stepLog":"16:24:40.436 src\/test\/java\/feature\/getApi.feature:40\nAnd match response == { id :'#notnull', name:'harshada',job:'testernew',createdAt:'#notnull'}\nmatch failed: EQUALS\n  $ | not equal | match failed for name: 'name' (MAP:MAP)\n  {\"name\":\"sima\",\"job\":\"tester\",\"id\":\"152\",\"createdAt\":\"2024-04-04T10:54:39.752Z\"}\n  {\"name\":\"harshada\",\"job\":\"testernew\",\"id\":\"#notnull\",\"createdAt\":\"#notnull\"}\n\n    $.name | not equal (STRING:STRING)\n    'sima'\n    'harshada'\n\nsrc\/test\/java\/feature\/getApi.feature:40\n"},{"result":{"nanos":0,"millis":0.0,"status":"skipped"},"step":{"line":41,"prefix":"Given","index":7,"text":"path response.id"}},{"result":{"nanos":0,"millis":0.0,"status":"skipped"},"step":{"line":42,"prefix":"And","index":8,"text":"print response"}}],"line":4,"description":"","durationMillis":2366.3258,"failed":true,"error":"match failed: EQUALS\n  $ | not equal | match failed for name: 'name' (MAP:MAP)\n  {\"name\":\"sima\",\"job\":\"tester\",\"id\":\"152\",\"createdAt\":\"2024-04-04T10:54:39.752Z\"}\n  {\"name\":\"harshada\",\"job\":\"testernew\",\"id\":\"#notnull\",\"createdAt\":\"#notnull\"}\n\n    $.name | not equal (STRING:STRING)\n    'sima'\n    'harshada'\n\nsrc\/test\/java\/feature\/getApi.feature:40","executorName":"main","name":"create and retrieve a user name","startTime":1712228078025,"refId":"[1:4]","endTime":1712228080436,"exampleIndex":-1},{"sectionIndex":1,"stepResults":[{"result":{"nanos":1319700,"millis":1.3197,"status":"passed"},"step":{"line":46,"prefix":"Given","index":0,"text":"url 'https:\/\/reqres.in\/api\/users\/'"}},{"result":{"nanos":1157400,"millis":1.1574,"status":"passed"},"step":{"line":47,"prefix":"And","index":1,"text":"header Content-Type = 'application\/json'"}},{"result":{"nanos":3476700,"millis":3.4767,"status":"passed"},"step":{"line":48,"prefix":"And","index":2,"text":"configure ssl = true"}},{"result":{"nanos":2298400,"millis":2.2984,"status":"passed"},"step":{"endLine":78,"line":49,"prefix":"And","docString":"{\n      \n      \n      \n          \"name\": \"George\",\n      \n      \n      \n          \"job\": \"Bluth\"\n      \n      \n      \n      }","index":3,"text":"request"}},{"result":{"nanos":187853000,"millis":187.853,"status":"passed"},"step":{"line":79,"prefix":"When","index":4,"text":"method GET"},"stepLog":"16:24:40.484 request:\n1 > GET https:\/\/reqres.in\/api\/users\/\n1 > Content-Type: application\/json; charset=UTF-8\n1 > Content-Length: 31\n1 > Host: reqres.in\n1 > Connection: Keep-Alive\n1 > User-Agent: Apache-HttpClient\/4.5.12 (Java\/17.0.6)\n1 > Accept-Encoding: gzip,deflate\n{\"name\":\"George\",\"job\":\"Bluth\"}\n\n16:24:40.660 response time in milliseconds: 169\n1 < 200\n1 < Date: Thu, 04 Apr 2024 10:54:40 GMT\n1 < Content-Type: application\/json; charset=utf-8\n1 < Transfer-Encoding: chunked\n1 < Connection: keep-alive\n1 < Report-To: {\"group\":\"heroku-nel\",\"max_age\":3600,\"endpoints\":[{\"url\":\"https:\/\/nel.heroku.com\/reports?ts=1712222130&sid=c4c9725f-1ab0-44d8-820f-430df2718e11&s=U7gxlLOn9glFH7UoDWeu34tOCnIKwPpa2EDmv2gjKUY%3D\"}]}\n1 < Reporting-Endpoints: heroku-nel=https:\/\/nel.heroku.com\/reports?ts=1712222130&sid=c4c9725f-1ab0-44d8-820f-430df2718e11&s=U7gxlLOn9glFH7UoDWeu34tOCnIKwPpa2EDmv2gjKUY%3D\n1 < Nel: {\"report_to\":\"heroku-nel\",\"max_age\":3600,\"success_fraction\":0.005,\"failure_fraction\":0.05,\"response_headers\":[\"Via\"]}\n1 < X-Powered-By: Express\n1 < Access-Control-Allow-Origin: *\n1 < Etag: W\/\"3e4-2RLXvr5wTg9YQ6aH95CkYoFNuO8\"\n1 < Via: 1.1 vegur\n1 < Cache-Control: max-age=14400\n1 < CF-Cache-Status: HIT\n1 < Age: 5950\n1 < Vary: Accept-Encoding\n1 < Server: cloudflare\n1 < CF-RAY: 86f0c2fd4b7ef573-BOM\n{\"page\":1,\"per_page\":6,\"total\":12,\"total_pages\":2,\"data\":[{\"id\":1,\"email\":\"george.bluth@reqres.in\",\"first_name\":\"George\",\"last_name\":\"Bluth\",\"avatar\":\"https:\/\/reqres.in\/img\/faces\/1-image.jpg\"},{\"id\":2,\"email\":\"janet.weaver@reqres.in\",\"first_name\":\"Janet\",\"last_name\":\"Weaver\",\"avatar\":\"https:\/\/reqres.in\/img\/faces\/2-image.jpg\"},{\"id\":3,\"email\":\"emma.wong@reqres.in\",\"first_name\":\"Emma\",\"last_name\":\"Wong\",\"avatar\":\"https:\/\/reqres.in\/img\/faces\/3-image.jpg\"},{\"id\":4,\"email\":\"eve.holt@reqres.in\",\"first_name\":\"Eve\",\"last_name\":\"Holt\",\"avatar\":\"https:\/\/reqres.in\/img\/faces\/4-image.jpg\"},{\"id\":5,\"email\":\"charles.morris@reqres.in\",\"first_name\":\"Charles\",\"last_name\":\"Morris\",\"avatar\":\"https:\/\/reqres.in\/img\/faces\/5-image.jpg\"},{\"id\":6,\"email\":\"tracey.ramos@reqres.in\",\"first_name\":\"Tracey\",\"last_name\":\"Ramos\",\"avatar\":\"https:\/\/reqres.in\/img\/faces\/6-image.jpg\"}],\"support\":{\"url\":\"https:\/\/reqres.in\/#support-heading\",\"text\":\"To keep ReqRes free, contributions towards server costs are appreciated!\"}}\n\n"},{"result":{"nanos":28500,"millis":0.0285,"status":"passed"},"step":{"line":80,"prefix":"Then","index":5,"text":"status 200"}},{"result":{"nanos":75121100,"millis":75.1211,"status":"passed"},"step":{"comments":["# And match response contains { id :1, name:'George',job:'Bluth',createdAt:'#notnull'}"],"line":82,"prefix":"Given","index":6,"text":"path response.id"}},{"result":{"nanos":129665000,"millis":129.665,"status":"passed"},"step":{"line":83,"prefix":"And","index":7,"text":"print response"},"stepLog":"16:24:40.868 [print] {\n  \"page\": 1,\n  \"per_page\": 6,\n  \"total\": 12,\n  \"total_pages\": 2,\n  \"data\": [\n    {\n      \"id\": 1,\n      \"email\": \"george.bluth@reqres.in\",\n      \"first_name\": \"George\",\n      \"last_name\": \"Bluth\",\n      \"avatar\": \"https:\/\/reqres.in\/img\/faces\/1-image.jpg\"\n    },\n    {\n      \"id\": 2,\n      \"email\": \"janet.weaver@reqres.in\",\n      \"first_name\": \"Janet\",\n      \"last_name\": \"Weaver\",\n      \"avatar\": \"https:\/\/reqres.in\/img\/faces\/2-image.jpg\"\n    },\n    {\n      \"id\": 3,\n      \"email\": \"emma.wong@reqres.in\",\n      \"first_name\": \"Emma\",\n      \"last_name\": \"Wong\",\n      \"avatar\": \"https:\/\/reqres.in\/img\/faces\/3-image.jpg\"\n    },\n    {\n      \"id\": 4,\n      \"email\": \"eve.holt@reqres.in\",\n      \"first_name\": \"Eve\",\n      \"last_name\": \"Holt\",\n      \"avatar\": \"https:\/\/reqres.in\/img\/faces\/4-image.jpg\"\n    },\n    {\n      \"id\": 5,\n      \"email\": \"charles.morris@reqres.in\",\n      \"first_name\": \"Charles\",\n      \"last_name\": \"Morris\",\n      \"avatar\": \"https:\/\/reqres.in\/img\/faces\/5-image.jpg\"\n    },\n    {\n      \"id\": 6,\n      \"email\": \"tracey.ramos@reqres.in\",\n      \"first_name\": \"Tracey\",\n      \"last_name\": \"Ramos\",\n      \"avatar\": \"https:\/\/reqres.in\/img\/faces\/6-image.jpg\"\n    }\n  ],\n  \"support\": {\n    \"url\": \"https:\/\/reqres.in\/#support-heading\",\n    \"text\": \"To keep ReqRes free, contributions towards server costs are appreciated!\"\n  }\n}\n \n"}],"executorName":"main","line":45,"name":"get and retrieve a user name","description":"","durationMillis":400.9198,"startTime":1712228080467,"failed":false,"refId":"[2:45]","endTime":1712228080870,"exampleIndex":-1},{"sectionIndex":2,"stepResults":[{"result":{"nanos":507700,"millis":0.5077,"status":"passed"},"step":{"line":87,"prefix":"Given","index":0,"text":"url 'https:\/\/reqres.in\/api\/users\/'"}},{"result":{"nanos":352000,"millis":0.352,"status":"passed"},"step":{"line":88,"prefix":"And","index":1,"text":"header Content-Type = 'application\/json'"}},{"result":{"nanos":2891100,"millis":2.8911,"status":"passed"},"step":{"line":89,"prefix":"And","index":2,"text":"configure ssl = true"}},{"result":{"nanos":620700,"millis":0.6207,"status":"passed"},"step":{"endLine":119,"line":90,"prefix":"And","docString":"{\n      \n      \n      \n          \"name\": \"George\",\n      \n      \n      \n          \"job\": \"Bluth\"\n      \n      \n      \n      }","index":3,"text":"request"}},{"result":{"nanos":520718800,"millis":520.7188,"status":"passed"},"step":{"line":120,"prefix":"When","index":4,"text":"method PUT"},"stepLog":"16:24:40.895 request:\n1 > PUT https:\/\/reqres.in\/api\/users\/\n1 > Content-Type: application\/json; charset=UTF-8\n1 > Content-Length: 31\n1 > Host: reqres.in\n1 > Connection: Keep-Alive\n1 > User-Agent: Apache-HttpClient\/4.5.12 (Java\/17.0.6)\n1 > Accept-Encoding: gzip,deflate\n{\"name\":\"George\",\"job\":\"Bluth\"}\n\n16:24:41.405 response time in milliseconds: 505\n1 < 200\n1 < Date: Thu, 04 Apr 2024 10:54:40 GMT\n1 < Content-Type: application\/json; charset=utf-8\n1 < Transfer-Encoding: chunked\n1 < Connection: keep-alive\n1 < Report-To: {\"group\":\"heroku-nel\",\"max_age\":3600,\"endpoints\":[{\"url\":\"https:\/\/nel.heroku.com\/reports?ts=1712228080&sid=c4c9725f-1ab0-44d8-820f-430df2718e11&s=Ee%2Fy5%2Bhpb5iiEA54v5s2tLLQCIfxQFXrSlw7s6Atgu4%3D\"}]}\n1 < Reporting-Endpoints: heroku-nel=https:\/\/nel.heroku.com\/reports?ts=1712228080&sid=c4c9725f-1ab0-44d8-820f-430df2718e11&s=Ee%2Fy5%2Bhpb5iiEA54v5s2tLLQCIfxQFXrSlw7s6Atgu4%3D\n1 < Nel: {\"report_to\":\"heroku-nel\",\"max_age\":3600,\"success_fraction\":0.005,\"failure_fraction\":0.05,\"response_headers\":[\"Via\"]}\n1 < X-Powered-By: Express\n1 < Access-Control-Allow-Origin: *\n1 < Etag: W\/\"46-bBZG98BKNC2fnfP96Q\/4lBAWj60\"\n1 < Via: 1.1 vegur\n1 < CF-Cache-Status: DYNAMIC\n1 < Vary: Accept-Encoding\n1 < Server: cloudflare\n1 < CF-RAY: 86f0c2ffa9d684bf-BOM\n{\"name\":\"George\",\"job\":\"Bluth\",\"updatedAt\":\"2024-04-04T10:54:40.896Z\"}\n\n"},{"result":{"nanos":54500,"millis":0.0545,"status":"passed"},"step":{"line":121,"prefix":"Then","index":5,"text":"status 200"}},{"result":{"nanos":1357400,"millis":1.3574,"status":"passed"},"step":{"comments":["# And match response contains { id :1, name:'George',job:'Bluth',createdAt:'#notnull'}"],"line":123,"prefix":"Given","index":6,"text":"path response.id"}},{"result":{"nanos":2442600,"millis":2.4426,"status":"passed"},"step":{"line":124,"prefix":"And","index":7,"text":"print response"},"stepLog":"16:24:41.415 [print] {\n  \"name\": \"George\",\n  \"job\": \"Bluth\",\n  \"updatedAt\": \"2024-04-04T10:54:40.896Z\"\n}\n \n"}],"executorName":"main","line":86,"name":"put and retrieve a user name","description":"","durationMillis":528.9448,"startTime":1712228080885,"failed":false,"refId":"[3:86]","endTime":1712228081415,"exampleIndex":-1},{"sectionIndex":3,"stepResults":[{"result":{"nanos":443100,"millis":0.4431,"status":"passed"},"step":{"line":127,"prefix":"Given","index":0,"text":"url 'https:\/\/reqres.in\/api\/users\/'"}},{"result":{"nanos":337700,"millis":0.3377,"status":"passed"},"step":{"line":128,"prefix":"And","index":1,"text":"header Content-Type = 'application\/json'"}},{"result":{"nanos":1997700,"millis":1.9977,"status":"passed"},"step":{"line":129,"prefix":"And","index":2,"text":"configure ssl = true"}},{"result":{"nanos":608100,"millis":0.6081,"status":"passed"},"step":{"endLine":159,"line":130,"prefix":"And","docString":"{\n      \n      \n      \n          \"name\": \"George\",\n      \n      \n      \n          \"job\": \"Bluth\"\n      \n      \n      \n      }","index":3,"text":"request"}},{"result":{"nanos":528430600,"millis":528.4306,"status":"passed"},"step":{"line":160,"prefix":"When","index":4,"text":"method PATCH"},"stepLog":"16:24:41.448 request:\n1 > PATCH https:\/\/reqres.in\/api\/users\/\n1 > Content-Type: application\/json; charset=UTF-8\n1 > Content-Length: 31\n1 > Host: reqres.in\n1 > Connection: Keep-Alive\n1 > User-Agent: Apache-HttpClient\/4.5.12 (Java\/17.0.6)\n1 > Accept-Encoding: gzip,deflate\n{\"name\":\"George\",\"job\":\"Bluth\"}\n\n16:24:41.968 response time in milliseconds: 516\n1 < 200\n1 < Date: Thu, 04 Apr 2024 10:54:41 GMT\n1 < Content-Type: application\/json; charset=utf-8\n1 < Transfer-Encoding: chunked\n1 < Connection: keep-alive\n1 < Report-To: {\"group\":\"heroku-nel\",\"max_age\":3600,\"endpoints\":[{\"url\":\"https:\/\/nel.heroku.com\/reports?ts=1712228081&sid=c4c9725f-1ab0-44d8-820f-430df2718e11&s=Zkxc%2FLIn%2F%2BHKgH1A%2BNwlY9jiiHYxlkpYA2SSrRiEpF8%3D\"}]}\n1 < Reporting-Endpoints: heroku-nel=https:\/\/nel.heroku.com\/reports?ts=1712228081&sid=c4c9725f-1ab0-44d8-820f-430df2718e11&s=Zkxc%2FLIn%2F%2BHKgH1A%2BNwlY9jiiHYxlkpYA2SSrRiEpF8%3D\n1 < Nel: {\"report_to\":\"heroku-nel\",\"max_age\":3600,\"success_fraction\":0.005,\"failure_fraction\":0.05,\"response_headers\":[\"Via\"]}\n1 < X-Powered-By: Express\n1 < Access-Control-Allow-Origin: *\n1 < Etag: W\/\"46-jMdV6TuTjsqCaBTZpBJMmpvkYyI\"\n1 < Via: 1.1 vegur\n1 < CF-Cache-Status: DYNAMIC\n1 < Server: cloudflare\n1 < CF-RAY: 86f0c3032aaf858a-BOM\n{\"name\":\"George\",\"job\":\"Bluth\",\"updatedAt\":\"2024-04-04T10:54:41.457Z\"}\n\n"},{"result":{"nanos":47200,"millis":0.0472,"status":"passed"},"step":{"line":161,"prefix":"Then","index":5,"text":"status 200"}},{"result":{"nanos":1017300,"millis":1.0173,"status":"passed"},"step":{"comments":["# And match response contains { id :1, name:'George',job:'Bluth',createdAt:'#notnull'}"],"line":163,"prefix":"Given","index":6,"text":"path response.id"}},{"result":{"nanos":2512400,"millis":2.5124,"status":"passed"},"step":{"line":164,"prefix":"And","index":7,"text":"print response"},"stepLog":"16:24:41.976 [print] {\n  \"name\": \"George\",\n  \"job\": \"Bluth\",\n  \"updatedAt\": \"2024-04-04T10:54:41.457Z\"\n}\n \n"}],"executorName":"main","line":126,"name":"Patch and retrieve a user name","description":"","durationMillis":535.3941,"startTime":1712228081438,"failed":false,"refId":"[4:126]","endTime":1712228081977,"exampleIndex":-1},{"sectionIndex":4,"stepResults":[{"result":{"nanos":883400,"millis":0.8834,"status":"passed"},"step":{"line":167,"prefix":"Given","index":0,"text":"url 'https:\/\/reqres.in\/api\/users\/'"}},{"result":{"nanos":548300,"millis":0.5483,"status":"passed"},"step":{"line":168,"prefix":"And","index":1,"text":"header Content-Type = 'application\/json'"}},{"result":{"nanos":2655300,"millis":2.6553,"status":"passed"},"step":{"line":169,"prefix":"And","index":2,"text":"configure ssl = true"}},{"result":{"nanos":743800,"millis":0.7438,"status":"passed"},"step":{"endLine":199,"line":170,"prefix":"And","docString":"{\n      \n      \n      \n          \"name\": \"George\",\n      \n      \n      \n          \"job\": \"Bluth\"\n      \n      \n      \n      }","index":3,"text":"request"}},{"result":{"nanos":516624400,"millis":516.6244,"status":"passed"},"step":{"line":200,"prefix":"When","index":4,"text":"method Delete"},"stepLog":"16:24:42.013 request:\n1 > DELETE https:\/\/reqres.in\/api\/users\/\n1 > Content-Type: application\/json; charset=UTF-8\n1 > Content-Length: 31\n1 > Host: reqres.in\n1 > Connection: Keep-Alive\n1 > User-Agent: Apache-HttpClient\/4.5.12 (Java\/17.0.6)\n1 > Accept-Encoding: gzip,deflate\n{\"name\":\"George\",\"job\":\"Bluth\"}\n\n16:24:42.521 response time in milliseconds: 505\n1 < 204\n1 < Date: Thu, 04 Apr 2024 10:54:42 GMT\n1 < Content-Length: 0\n1 < Connection: keep-alive\n1 < Report-To: {\"group\":\"heroku-nel\",\"max_age\":3600,\"endpoints\":[{\"url\":\"https:\/\/nel.heroku.com\/reports?ts=1712228081&sid=c4c9725f-1ab0-44d8-820f-430df2718e11&s=Zkxc%2FLIn%2F%2BHKgH1A%2BNwlY9jiiHYxlkpYA2SSrRiEpF8%3D\"}]}\n1 < Reporting-Endpoints: heroku-nel=https:\/\/nel.heroku.com\/reports?ts=1712228081&sid=c4c9725f-1ab0-44d8-820f-430df2718e11&s=Zkxc%2FLIn%2F%2BHKgH1A%2BNwlY9jiiHYxlkpYA2SSrRiEpF8%3D\n1 < Nel: {\"report_to\":\"heroku-nel\",\"max_age\":3600,\"success_fraction\":0.005,\"failure_fraction\":0.05,\"response_headers\":[\"Via\"]}\n1 < X-Powered-By: Express\n1 < Access-Control-Allow-Origin: *\n1 < Etag: W\/\"2-vyGp6PvFo4RvsFtPoIWeCReyIC8\"\n1 < Via: 1.1 vegur\n1 < CF-Cache-Status: DYNAMIC\n1 < Server: cloudflare\n1 < CF-RAY: 86f0c3069c2f8534-BOM\n\n\n"},{"result":{"nanos":31900,"millis":0.0319,"status":"passed"},"step":{"line":201,"prefix":"Then","index":5,"text":"status 204"}},{"result":{"nanos":2350200,"millis":2.3502,"status":"passed"},"step":{"comments":["# And match response contains { id :1, name:'George',job:'Bluth',createdAt:'#notnull'}"],"line":203,"prefix":"Given","index":6,"text":"path response.id"}},{"result":{"nanos":3310300,"millis":3.3103,"status":"passed"},"step":{"line":204,"prefix":"And","index":7,"text":"print response"},"stepLog":"16:24:42.530 [print]  \n"}],"executorName":"main","line":166,"name":"Delete and retrieve a user name","description":"","durationMillis":527.1476,"startTime":1712228082002,"failed":false,"refId":"[5:166]","endTime":1712228082531,"exampleIndex":-1}],"callDepth":0,"name":"karate example","description":"","resultDate":"2024-04-04 04:24:42 pm","durationMillis":4358.7321,"passedCount":4}