{"failedCount":0,"prefixedPath":"src\/test\/java\/feature\/getApi.feature","packageQualifiedName":"src.test.java.feature.getApi","loopIndex":-1,"relativePath":"src\/test\/java\/feature\/getApi.feature","scenarioResults":[{"sectionIndex":0,"stepResults":[{"result":{"nanos":146812700,"millis":146.8127,"status":"passed"},"step":{"line":5,"prefix":"Given","index":0,"text":"url 'https:\/\/reqres.in\/api\/users\/'"}},{"result":{"nanos":1532600,"millis":1.5326,"status":"passed"},"step":{"line":6,"prefix":"And","index":1,"text":"header Content-Type = 'application\/json'"}},{"result":{"nanos":465220000,"millis":465.22,"status":"passed"},"step":{"line":7,"prefix":"And","index":2,"text":"configure ssl = true"}},{"result":{"nanos":111128700,"millis":111.1287,"status":"passed"},"step":{"endLine":37,"line":8,"prefix":"And","docString":"{\n      \n      \n      \n          \"name\": \"harshada\",\n      \n      \n      \n          \"job\": \"testernew\"\n      \n      \n      \n      }","index":3,"text":"request"}},{"result":{"nanos":1144751600,"millis":1144.7516,"status":"passed"},"step":{"line":38,"prefix":"When","index":4,"text":"method POST"},"stepLog":"16:10:07.390 request:\n1 > POST https:\/\/reqres.in\/api\/users\/\n1 > Content-Type: application\/json; charset=UTF-8\n1 > Content-Length: 37\n1 > Host: reqres.in\n1 > Connection: Keep-Alive\n1 > User-Agent: Apache-HttpClient\/4.5.12 (Java\/17.0.6)\n1 > Accept-Encoding: gzip,deflate\n{\"name\":\"harshada\",\"job\":\"testernew\"}\n\n16:10:08.239 response time in milliseconds: 834\n1 < 201\n1 < Date: Thu, 04 Apr 2024 10:40:07 GMT\n1 < Content-Type: application\/json; charset=utf-8\n1 < Content-Length: 87\n1 < Connection: keep-alive\n1 < Report-To: {\"group\":\"heroku-nel\",\"max_age\":3600,\"endpoints\":[{\"url\":\"https:\/\/nel.heroku.com\/reports?ts=1712227207&sid=c4c9725f-1ab0-44d8-820f-430df2718e11&s=Oh4JI6GWRC%2FTse9zf6IbhcK%2Fi1HhebpMBXSo0CV8xhg%3D\"}]}\n1 < Reporting-Endpoints: heroku-nel=https:\/\/nel.heroku.com\/reports?ts=1712227207&sid=c4c9725f-1ab0-44d8-820f-430df2718e11&s=Oh4JI6GWRC%2FTse9zf6IbhcK%2Fi1HhebpMBXSo0CV8xhg%3D\n1 < Nel: {\"report_to\":\"heroku-nel\",\"max_age\":3600,\"success_fraction\":0.005,\"failure_fraction\":0.05,\"response_headers\":[\"Via\"]}\n1 < X-Powered-By: Express\n1 < Access-Control-Allow-Origin: *\n1 < Etag: W\/\"57-iuKu9TYgt5xwJj5mtyYsweCcknU\"\n1 < Via: 1.1 vegur\n1 < CF-Cache-Status: DYNAMIC\n1 < Server: cloudflare\n1 < CF-RAY: 86f0adadf9d76ecb-BOM\n{\"name\":\"harshada\",\"job\":\"testernew\",\"id\":\"618\",\"createdAt\":\"2024-04-04T10:40:07.669Z\"}\n\n"},{"result":{"nanos":50700,"millis":0.0507,"status":"passed"},"step":{"line":39,"prefix":"Then","index":5,"text":"status 201"}},{"result":{"nanos":113455000,"millis":113.455,"status":"passed"},"step":{"line":40,"prefix":"And","index":6,"text":"match response == { id :'#notnull', name:'harshada',job:'testernew',createdAt:'#notnull'}"}},{"result":{"nanos":34069700,"millis":34.0697,"status":"passed"},"step":{"line":41,"prefix":"Given","index":7,"text":"path response.id"}},{"result":{"nanos":90807800,"millis":90.8078,"status":"passed"},"step":{"line":42,"prefix":"And","index":8,"text":"print response"},"stepLog":"16:10:08.489 [print] {\n  \"name\": \"harshada\",\n  \"job\": \"testernew\",\n  \"id\": \"618\",\n  \"createdAt\": \"2024-04-04T10:40:07.669Z\"\n}\n \n"}],"executorName":"main","line":4,"name":"create and retrieve a user name","description":"","durationMillis":2107.8288,"startTime":1712227206349,"failed":false,"refId":"[1:4]","endTime":1712227208490,"exampleIndex":-1},{"sectionIndex":1,"stepResults":[{"result":{"nanos":990200,"millis":0.9902,"status":"passed"},"step":{"line":46,"prefix":"Given","index":0,"text":"url 'https:\/\/reqres.in\/api\/users\/'"}},{"result":{"nanos":891100,"millis":0.8911,"status":"passed"},"step":{"line":47,"prefix":"And","index":1,"text":"header Content-Type = 'application\/json'"}},{"result":{"nanos":3504900,"millis":3.5049,"status":"passed"},"step":{"line":48,"prefix":"And","index":2,"text":"configure ssl = true"}},{"result":{"nanos":2285500,"millis":2.2855,"status":"passed"},"step":{"endLine":78,"line":49,"prefix":"And","docString":"{\n      \n      \n      \n          \"name\": \"George\",\n      \n      \n      \n          \"job\": \"Bluth\"\n      \n      \n      \n      }","index":3,"text":"request"}},{"result":{"nanos":579267400,"millis":579.2674,"status":"passed"},"step":{"line":79,"prefix":"When","index":4,"text":"method GET"},"stepLog":"16:10:08.534 request:\n1 > GET https:\/\/reqres.in\/api\/users\/\n1 > Content-Type: application\/json; charset=UTF-8\n1 > Content-Length: 31\n1 > Host: reqres.in\n1 > Connection: Keep-Alive\n1 > User-Agent: Apache-HttpClient\/4.5.12 (Java\/17.0.6)\n1 > Accept-Encoding: gzip,deflate\n{\"name\":\"George\",\"job\":\"Bluth\"}\n\n16:10:09.088 response time in milliseconds: 547\n1 < 200\n1 < Date: Thu, 04 Apr 2024 10:40:08 GMT\n1 < Content-Type: application\/json; charset=utf-8\n1 < Transfer-Encoding: chunked\n1 < Connection: keep-alive\n1 < Report-To: {\"group\":\"heroku-nel\",\"max_age\":3600,\"endpoints\":[{\"url\":\"https:\/\/nel.heroku.com\/reports?ts=1712025343&sid=c4c9725f-1ab0-44d8-820f-430df2718e11&s=%2F2QRBSnqp2OSFnCEEMUTDIW%2Bjwyv0Ir7459yZ4T7TEQ%3D\"}]}\n1 < Reporting-Endpoints: heroku-nel=https:\/\/nel.heroku.com\/reports?ts=1712025343&sid=c4c9725f-1ab0-44d8-820f-430df2718e11&s=%2F2QRBSnqp2OSFnCEEMUTDIW%2Bjwyv0Ir7459yZ4T7TEQ%3D\n1 < Nel: {\"report_to\":\"heroku-nel\",\"max_age\":3600,\"success_fraction\":0.005,\"failure_fraction\":0.05,\"response_headers\":[\"Via\"]}\n1 < X-Powered-By: Express\n1 < Access-Control-Allow-Origin: *\n1 < Etag: W\/\"3e4-2RLXvr5wTg9YQ6aH95CkYoFNuO8\"\n1 < Via: 1.1 vegur\n1 < Cache-Control: max-age=14400\n1 < CF-Cache-Status: REVALIDATED\n1 < Vary: Accept-Encoding\n1 < Server: cloudflare\n1 < CF-RAY: 86f0adb37fd8f2da-BOM\n{\"page\":1,\"per_page\":6,\"total\":12,\"total_pages\":2,\"data\":[{\"id\":1,\"email\":\"george.bluth@reqres.in\",\"first_name\":\"George\",\"last_name\":\"Bluth\",\"avatar\":\"https:\/\/reqres.in\/img\/faces\/1-image.jpg\"},{\"id\":2,\"email\":\"janet.weaver@reqres.in\",\"first_name\":\"Janet\",\"last_name\":\"Weaver\",\"avatar\":\"https:\/\/reqres.in\/img\/faces\/2-image.jpg\"},{\"id\":3,\"email\":\"emma.wong@reqres.in\",\"first_name\":\"Emma\",\"last_name\":\"Wong\",\"avatar\":\"https:\/\/reqres.in\/img\/faces\/3-image.jpg\"},{\"id\":4,\"email\":\"eve.holt@reqres.in\",\"first_name\":\"Eve\",\"last_name\":\"Holt\",\"avatar\":\"https:\/\/reqres.in\/img\/faces\/4-image.jpg\"},{\"id\":5,\"email\":\"charles.morris@reqres.in\",\"first_name\":\"Charles\",\"last_name\":\"Morris\",\"avatar\":\"https:\/\/reqres.in\/img\/faces\/5-image.jpg\"},{\"id\":6,\"email\":\"tracey.ramos@reqres.in\",\"first_name\":\"Tracey\",\"last_name\":\"Ramos\",\"avatar\":\"https:\/\/reqres.in\/img\/faces\/6-image.jpg\"}],\"support\":{\"url\":\"https:\/\/reqres.in\/#support-heading\",\"text\":\"To keep ReqRes free, contributions towards server costs are appreciated!\"}}\n\n"},{"result":{"nanos":32400,"millis":0.0324,"status":"passed"},"step":{"line":80,"prefix":"Then","index":5,"text":"status 200"}},{"result":{"nanos":14570300,"millis":14.5703,"status":"passed"},"step":{"comments":["# And match response contains { id :1, name:'George',job:'Bluth',createdAt:'#notnull'}"],"line":82,"prefix":"Given","index":6,"text":"path response.id"}},{"result":{"nanos":4012700,"millis":4.0127,"status":"passed"},"step":{"line":83,"prefix":"And","index":7,"text":"print response"},"stepLog":"16:10:09.114 [print] {\n  \"page\": 1,\n  \"per_page\": 6,\n  \"total\": 12,\n  \"total_pages\": 2,\n  \"data\": [\n    {\n      \"id\": 1,\n      \"email\": \"george.bluth@reqres.in\",\n      \"first_name\": \"George\",\n      \"last_name\": \"Bluth\",\n      \"avatar\": \"https:\/\/reqres.in\/img\/faces\/1-image.jpg\"\n    },\n    {\n      \"id\": 2,\n      \"email\": \"janet.weaver@reqres.in\",\n      \"first_name\": \"Janet\",\n      \"last_name\": \"Weaver\",\n      \"avatar\": \"https:\/\/reqres.in\/img\/faces\/2-image.jpg\"\n    },\n    {\n      \"id\": 3,\n      \"email\": \"emma.wong@reqres.in\",\n      \"first_name\": \"Emma\",\n      \"last_name\": \"Wong\",\n      \"avatar\": \"https:\/\/reqres.in\/img\/faces\/3-image.jpg\"\n    },\n    {\n      \"id\": 4,\n      \"email\": \"eve.holt@reqres.in\",\n      \"first_name\": \"Eve\",\n      \"last_name\": \"Holt\",\n      \"avatar\": \"https:\/\/reqres.in\/img\/faces\/4-image.jpg\"\n    },\n    {\n      \"id\": 5,\n      \"email\": \"charles.morris@reqres.in\",\n      \"first_name\": \"Charles\",\n      \"last_name\": \"Morris\",\n      \"avatar\": \"https:\/\/reqres.in\/img\/faces\/5-image.jpg\"\n    },\n    {\n      \"id\": 6,\n      \"email\": \"tracey.ramos@reqres.in\",\n      \"first_name\": \"Tracey\",\n      \"last_name\": \"Ramos\",\n      \"avatar\": \"https:\/\/reqres.in\/img\/faces\/6-image.jpg\"\n    }\n  ],\n  \"support\": {\n    \"url\": \"https:\/\/reqres.in\/#support-heading\",\n    \"text\": \"To keep ReqRes free, contributions towards server costs are appreciated!\"\n  }\n}\n \n"}],"executorName":"main","line":45,"name":"get and retrieve a user name","description":"","durationMillis":605.5545,"startTime":1712227208507,"failed":false,"refId":"[2:45]","endTime":1712227209114,"exampleIndex":-1},{"sectionIndex":2,"stepResults":[{"result":{"nanos":321000,"millis":0.321,"status":"passed"},"step":{"line":87,"prefix":"Given","index":0,"text":"url 'https:\/\/reqres.in\/api\/users\/'"}},{"result":{"nanos":236600,"millis":0.2366,"status":"passed"},"step":{"line":88,"prefix":"And","index":1,"text":"header Content-Type = 'application\/json'"}},{"result":{"nanos":1740800,"millis":1.7408,"status":"passed"},"step":{"line":89,"prefix":"And","index":2,"text":"configure ssl = true"}},{"result":{"nanos":477600,"millis":0.4776,"status":"passed"},"step":{"endLine":119,"line":90,"prefix":"And","docString":"{\n      \n      \n      \n          \"name\": \"George\",\n      \n      \n      \n          \"job\": \"Bluth\"\n      \n      \n      \n      }","index":3,"text":"request"}},{"result":{"nanos":502745300,"millis":502.7453,"status":"passed"},"step":{"line":120,"prefix":"When","index":4,"text":"method PUT"},"stepLog":"16:10:09.140 request:\n1 > PUT https:\/\/reqres.in\/api\/users\/\n1 > Content-Type: application\/json; charset=UTF-8\n1 > Content-Length: 31\n1 > Host: reqres.in\n1 > Connection: Keep-Alive\n1 > User-Agent: Apache-HttpClient\/4.5.12 (Java\/17.0.6)\n1 > Accept-Encoding: gzip,deflate\n{\"name\":\"George\",\"job\":\"Bluth\"}\n\n16:10:09.634 response time in milliseconds: 487\n1 < 200\n1 < Date: Thu, 04 Apr 2024 10:40:09 GMT\n1 < Content-Type: application\/json; charset=utf-8\n1 < Transfer-Encoding: chunked\n1 < Connection: keep-alive\n1 < Report-To: {\"group\":\"heroku-nel\",\"max_age\":3600,\"endpoints\":[{\"url\":\"https:\/\/nel.heroku.com\/reports?ts=1712227209&sid=c4c9725f-1ab0-44d8-820f-430df2718e11&s=XBSb1ynToqq5YIR32Z%2FbIqwdsxGxcPKQSBPRrhJIZuw%3D\"}]}\n1 < Reporting-Endpoints: heroku-nel=https:\/\/nel.heroku.com\/reports?ts=1712227209&sid=c4c9725f-1ab0-44d8-820f-430df2718e11&s=XBSb1ynToqq5YIR32Z%2FbIqwdsxGxcPKQSBPRrhJIZuw%3D\n1 < Nel: {\"report_to\":\"heroku-nel\",\"max_age\":3600,\"success_fraction\":0.005,\"failure_fraction\":0.05,\"response_headers\":[\"Via\"]}\n1 < X-Powered-By: Express\n1 < Access-Control-Allow-Origin: *\n1 < Etag: W\/\"46-5gbzEclgunYXB1lDpi5Z1ZOAHAY\"\n1 < Via: 1.1 vegur\n1 < CF-Cache-Status: DYNAMIC\n1 < Vary: Accept-Encoding\n1 < Server: cloudflare\n1 < CF-RAY: 86f0adb6f94a321e-BOM\n{\"name\":\"George\",\"job\":\"Bluth\",\"updatedAt\":\"2024-04-04T10:40:09.102Z\"}\n\n"},{"result":{"nanos":561100,"millis":0.5611,"status":"passed"},"step":{"line":121,"prefix":"Then","index":5,"text":"status 200"}},{"result":{"nanos":1409200,"millis":1.4092,"status":"passed"},"step":{"comments":["# And match response contains { id :1, name:'George',job:'Bluth',createdAt:'#notnull'}"],"line":123,"prefix":"Given","index":6,"text":"path response.id"}},{"result":{"nanos":2386100,"millis":2.3861,"status":"passed"},"step":{"line":124,"prefix":"And","index":7,"text":"print response"},"stepLog":"16:10:09.644 [print] {\n  \"name\": \"George\",\n  \"job\": \"Bluth\",\n  \"updatedAt\": \"2024-04-04T10:40:09.102Z\"\n}\n \n"}],"executorName":"main","line":86,"name":"put and retrieve a user name","description":"","durationMillis":509.8777,"startTime":1712227209132,"failed":false,"refId":"[3:86]","endTime":1712227209645,"exampleIndex":-1},{"sectionIndex":3,"stepResults":[{"result":{"nanos":450800,"millis":0.4508,"status":"passed"},"step":{"line":127,"prefix":"Given","index":0,"text":"url 'https:\/\/reqres.in\/api\/users\/'"}},{"result":{"nanos":422200,"millis":0.4222,"status":"passed"},"step":{"line":128,"prefix":"And","index":1,"text":"header Content-Type = 'application\/json'"}},{"result":{"nanos":2016100,"millis":2.0161,"status":"passed"},"step":{"line":129,"prefix":"And","index":2,"text":"configure ssl = true"}},{"result":{"nanos":687100,"millis":0.6871,"status":"passed"},"step":{"endLine":159,"line":130,"prefix":"And","docString":"{\n      \n      \n      \n          \"name\": \"George\",\n      \n      \n      \n          \"job\": \"Bluth\"\n      \n      \n      \n      }","index":3,"text":"request"}},{"result":{"nanos":494627500,"millis":494.6275,"status":"passed"},"step":{"line":160,"prefix":"When","index":4,"text":"method PATCH"},"stepLog":"16:10:09.677 request:\n1 > PATCH https:\/\/reqres.in\/api\/users\/\n1 > Content-Type: application\/json; charset=UTF-8\n1 > Content-Length: 31\n1 > Host: reqres.in\n1 > Connection: Keep-Alive\n1 > User-Agent: Apache-HttpClient\/4.5.12 (Java\/17.0.6)\n1 > Accept-Encoding: gzip,deflate\n{\"name\":\"George\",\"job\":\"Bluth\"}\n\n16:10:10.163 response time in milliseconds: 482\n1 < 200\n1 < Date: Thu, 04 Apr 2024 10:40:09 GMT\n1 < Content-Type: application\/json; charset=utf-8\n1 < Transfer-Encoding: chunked\n1 < Connection: keep-alive\n1 < Report-To: {\"group\":\"heroku-nel\",\"max_age\":3600,\"endpoints\":[{\"url\":\"https:\/\/nel.heroku.com\/reports?ts=1712227209&sid=c4c9725f-1ab0-44d8-820f-430df2718e11&s=XBSb1ynToqq5YIR32Z%2FbIqwdsxGxcPKQSBPRrhJIZuw%3D\"}]}\n1 < Reporting-Endpoints: heroku-nel=https:\/\/nel.heroku.com\/reports?ts=1712227209&sid=c4c9725f-1ab0-44d8-820f-430df2718e11&s=XBSb1ynToqq5YIR32Z%2FbIqwdsxGxcPKQSBPRrhJIZuw%3D\n1 < Nel: {\"report_to\":\"heroku-nel\",\"max_age\":3600,\"success_fraction\":0.005,\"failure_fraction\":0.05,\"response_headers\":[\"Via\"]}\n1 < X-Powered-By: Express\n1 < Access-Control-Allow-Origin: *\n1 < Etag: W\/\"46-lb8fTwRu\/fVDRM\/0wSSEd4MOlxc\"\n1 < Via: 1.1 vegur\n1 < CF-Cache-Status: DYNAMIC\n1 < Server: cloudflare\n1 < CF-RAY: 86f0adba7eef3f7e-BOM\n{\"name\":\"George\",\"job\":\"Bluth\",\"updatedAt\":\"2024-04-04T10:40:09.654Z\"}\n\n"},{"result":{"nanos":52100,"millis":0.0521,"status":"passed"},"step":{"line":161,"prefix":"Then","index":5,"text":"status 200"}},{"result":{"nanos":665200,"millis":0.6652,"status":"passed"},"step":{"comments":["# And match response contains { id :1, name:'George',job:'Bluth',createdAt:'#notnull'}"],"line":163,"prefix":"Given","index":6,"text":"path response.id"}},{"result":{"nanos":4264600,"millis":4.2646,"status":"passed"},"step":{"line":164,"prefix":"And","index":7,"text":"print response"},"stepLog":"16:10:10.173 [print] {\n  \"name\": \"George\",\n  \"job\": \"Bluth\",\n  \"updatedAt\": \"2024-04-04T10:40:09.654Z\"\n}\n \n"}],"executorName":"main","line":126,"name":"Patch and retrieve a user name","description":"","durationMillis":503.1856,"startTime":1712227209668,"failed":false,"refId":"[4:126]","endTime":1712227210173,"exampleIndex":-1},{"sectionIndex":4,"stepResults":[{"result":{"nanos":777800,"millis":0.7778,"status":"passed"},"step":{"line":167,"prefix":"Given","index":0,"text":"url 'https:\/\/reqres.in\/api\/users\/'"}},{"result":{"nanos":698700,"millis":0.6987,"status":"passed"},"step":{"line":168,"prefix":"And","index":1,"text":"header Content-Type = 'application\/json'"}},{"result":{"nanos":2265500,"millis":2.2655,"status":"passed"},"step":{"line":169,"prefix":"And","index":2,"text":"configure ssl = true"}},{"result":{"nanos":665900,"millis":0.6659,"status":"passed"},"step":{"endLine":199,"line":170,"prefix":"And","docString":"{\n      \n      \n      \n          \"name\": \"George\",\n      \n      \n      \n          \"job\": \"Bluth\"\n      \n      \n      \n      }","index":3,"text":"request"}},{"result":{"nanos":501786900,"millis":501.7869,"status":"passed"},"step":{"line":200,"prefix":"When","index":4,"text":"method Delete"},"stepLog":"16:10:10.213 request:\n1 > DELETE https:\/\/reqres.in\/api\/users\/\n1 > Content-Type: application\/json; charset=UTF-8\n1 > Content-Length: 31\n1 > Host: reqres.in\n1 > Connection: Keep-Alive\n1 > User-Agent: Apache-HttpClient\/4.5.12 (Java\/17.0.6)\n1 > Accept-Encoding: gzip,deflate\n{\"name\":\"George\",\"job\":\"Bluth\"}\n\n16:10:10.704 response time in milliseconds: 486\n1 < 204\n1 < Date: Thu, 04 Apr 2024 10:40:10 GMT\n1 < Content-Length: 0\n1 < Connection: keep-alive\n1 < Report-To: {\"group\":\"heroku-nel\",\"max_age\":3600,\"endpoints\":[{\"url\":\"https:\/\/nel.heroku.com\/reports?ts=1712227210&sid=c4c9725f-1ab0-44d8-820f-430df2718e11&s=WQLoFT68MU5ICOWEOQUPgKKReHC4t1GdaY90ULDR2Nc%3D\"}]}\n1 < Reporting-Endpoints: heroku-nel=https:\/\/nel.heroku.com\/reports?ts=1712227210&sid=c4c9725f-1ab0-44d8-820f-430df2718e11&s=WQLoFT68MU5ICOWEOQUPgKKReHC4t1GdaY90ULDR2Nc%3D\n1 < Nel: {\"report_to\":\"heroku-nel\",\"max_age\":3600,\"success_fraction\":0.005,\"failure_fraction\":0.05,\"response_headers\":[\"Via\"]}\n1 < X-Powered-By: Express\n1 < Access-Control-Allow-Origin: *\n1 < Etag: W\/\"2-vyGp6PvFo4RvsFtPoIWeCReyIC8\"\n1 < Via: 1.1 vegur\n1 < CF-Cache-Status: DYNAMIC\n1 < Server: cloudflare\n1 < CF-RAY: 86f0adbdaa7af4b8-BOM\n\n\n"},{"result":{"nanos":46800,"millis":0.0468,"status":"passed"},"step":{"line":201,"prefix":"Then","index":5,"text":"status 204"}},{"result":{"nanos":3131800,"millis":3.1318,"status":"passed"},"step":{"comments":["# And match response contains { id :1, name:'George',job:'Bluth',createdAt:'#notnull'}"],"line":203,"prefix":"Given","index":6,"text":"path response.id"}},{"result":{"nanos":1718800,"millis":1.7188,"status":"passed"},"step":{"line":204,"prefix":"And","index":7,"text":"print response"},"stepLog":"16:10:10.712 [print]  \n"}],"executorName":"main","line":166,"name":"Delete and retrieve a user name","description":"","durationMillis":511.0922,"startTime":1712227210200,"failed":false,"refId":"[5:166]","endTime":1712227210713,"exampleIndex":-1}],"callDepth":0,"name":"karate example","description":"","resultDate":"2024-04-04 04:10:10 pm","durationMillis":4237.5388,"passedCount":5}